(kicad_sch (version 20211123) (generator eeschema)

  (uuid e63e39d7-6ac0-4ffd-8aa3-1841a4541b55)

  (paper "A4")

  (lib_symbols
    (symbol "Connector:TestPoint_Alt" (pin_numbers hide) (pin_names (offset 0.762) hide) (in_bom yes) (on_board yes)
      (property "Reference" "TP" (id 0) (at 0 6.858 0)
        (effects (font (size 1.27 1.27)))
      )
      (property "Value" "TestPoint_Alt" (id 1) (at 0 5.08 0)
        (effects (font (size 1.27 1.27)))
      )
      (property "Footprint" "" (id 2) (at 5.08 0 0)
        (effects (font (size 1.27 1.27)) hide)
      )
      (property "Datasheet" "~" (id 3) (at 5.08 0 0)
        (effects (font (size 1.27 1.27)) hide)
      )
      (property "ki_keywords" "test point tp" (id 4) (at 0 0 0)
        (effects (font (size 1.27 1.27)) hide)
      )
      (property "ki_description" "test point (alternative shape)" (id 5) (at 0 0 0)
        (effects (font (size 1.27 1.27)) hide)
      )
      (property "ki_fp_filters" "Pin* Test*" (id 6) (at 0 0 0)
        (effects (font (size 1.27 1.27)) hide)
      )
      (symbol "TestPoint_Alt_0_1"
        (polyline
          (pts
            (xy 0 2.54)
            (xy -0.762 3.302)
            (xy 0 4.064)
            (xy 0.762 3.302)
            (xy 0 2.54)
          )
          (stroke (width 0) (type default) (color 0 0 0 0))
          (fill (type none))
        )
      )
      (symbol "TestPoint_Alt_1_1"
        (pin passive line (at 0 0 90) (length 2.54)
          (name "1" (effects (font (size 1.27 1.27))))
          (number "1" (effects (font (size 1.27 1.27))))
        )
      )
    )
    (symbol "Connector:USB_B_Micro" (pin_names (offset 1.016)) (in_bom yes) (on_board yes)
      (property "Reference" "J" (id 0) (at -5.08 11.43 0)
        (effects (font (size 1.27 1.27)) (justify left))
      )
      (property "Value" "USB_B_Micro" (id 1) (at -5.08 8.89 0)
        (effects (font (size 1.27 1.27)) (justify left))
      )
      (property "Footprint" "" (id 2) (at 3.81 -1.27 0)
        (effects (font (size 1.27 1.27)) hide)
      )
      (property "Datasheet" "~" (id 3) (at 3.81 -1.27 0)
        (effects (font (size 1.27 1.27)) hide)
      )
      (property "ki_keywords" "connector USB micro" (id 4) (at 0 0 0)
        (effects (font (size 1.27 1.27)) hide)
      )
      (property "ki_description" "USB Micro Type B connector" (id 5) (at 0 0 0)
        (effects (font (size 1.27 1.27)) hide)
      )
      (property "ki_fp_filters" "USB*" (id 6) (at 0 0 0)
        (effects (font (size 1.27 1.27)) hide)
      )
      (symbol "USB_B_Micro_0_1"
        (rectangle (start -5.08 -7.62) (end 5.08 7.62)
          (stroke (width 0.254) (type default) (color 0 0 0 0))
          (fill (type background))
        )
        (circle (center -3.81 2.159) (radius 0.635)
          (stroke (width 0.254) (type default) (color 0 0 0 0))
          (fill (type outline))
        )
        (circle (center -0.635 3.429) (radius 0.381)
          (stroke (width 0.254) (type default) (color 0 0 0 0))
          (fill (type outline))
        )
        (rectangle (start -0.127 -7.62) (end 0.127 -6.858)
          (stroke (width 0) (type default) (color 0 0 0 0))
          (fill (type none))
        )
        (polyline
          (pts
            (xy -1.905 2.159)
            (xy 0.635 2.159)
          )
          (stroke (width 0.254) (type default) (color 0 0 0 0))
          (fill (type none))
        )
        (polyline
          (pts
            (xy -3.175 2.159)
            (xy -2.54 2.159)
            (xy -1.27 3.429)
            (xy -0.635 3.429)
          )
          (stroke (width 0.254) (type default) (color 0 0 0 0))
          (fill (type none))
        )
        (polyline
          (pts
            (xy -2.54 2.159)
            (xy -1.905 2.159)
            (xy -1.27 0.889)
            (xy 0 0.889)
          )
          (stroke (width 0.254) (type default) (color 0 0 0 0))
          (fill (type none))
        )
        (polyline
          (pts
            (xy 0.635 2.794)
            (xy 0.635 1.524)
            (xy 1.905 2.159)
            (xy 0.635 2.794)
          )
          (stroke (width 0.254) (type default) (color 0 0 0 0))
          (fill (type outline))
        )
        (polyline
          (pts
            (xy -4.318 5.588)
            (xy -1.778 5.588)
            (xy -2.032 4.826)
            (xy -4.064 4.826)
            (xy -4.318 5.588)
          )
          (stroke (width 0) (type default) (color 0 0 0 0))
          (fill (type outline))
        )
        (polyline
          (pts
            (xy -4.699 5.842)
            (xy -4.699 5.588)
            (xy -4.445 4.826)
            (xy -4.445 4.572)
            (xy -1.651 4.572)
            (xy -1.651 4.826)
            (xy -1.397 5.588)
            (xy -1.397 5.842)
            (xy -4.699 5.842)
          )
          (stroke (width 0) (type default) (color 0 0 0 0))
          (fill (type none))
        )
        (rectangle (start 0.254 1.27) (end -0.508 0.508)
          (stroke (width 0.254) (type default) (color 0 0 0 0))
          (fill (type outline))
        )
        (rectangle (start 5.08 -5.207) (end 4.318 -4.953)
          (stroke (width 0) (type default) (color 0 0 0 0))
          (fill (type none))
        )
        (rectangle (start 5.08 -2.667) (end 4.318 -2.413)
          (stroke (width 0) (type default) (color 0 0 0 0))
          (fill (type none))
        )
        (rectangle (start 5.08 -0.127) (end 4.318 0.127)
          (stroke (width 0) (type default) (color 0 0 0 0))
          (fill (type none))
        )
        (rectangle (start 5.08 4.953) (end 4.318 5.207)
          (stroke (width 0) (type default) (color 0 0 0 0))
          (fill (type none))
        )
      )
      (symbol "USB_B_Micro_1_1"
        (pin power_out line (at 7.62 5.08 180) (length 2.54)
          (name "VBUS" (effects (font (size 1.27 1.27))))
          (number "1" (effects (font (size 1.27 1.27))))
        )
        (pin bidirectional line (at 7.62 -2.54 180) (length 2.54)
          (name "D-" (effects (font (size 1.27 1.27))))
          (number "2" (effects (font (size 1.27 1.27))))
        )
        (pin bidirectional line (at 7.62 0 180) (length 2.54)
          (name "D+" (effects (font (size 1.27 1.27))))
          (number "3" (effects (font (size 1.27 1.27))))
        )
        (pin passive line (at 7.62 -5.08 180) (length 2.54)
          (name "ID" (effects (font (size 1.27 1.27))))
          (number "4" (effects (font (size 1.27 1.27))))
        )
        (pin power_out line (at 0 -10.16 90) (length 2.54)
          (name "GND" (effects (font (size 1.27 1.27))))
          (number "5" (effects (font (size 1.27 1.27))))
        )
        (pin passive line (at -2.54 -10.16 90) (length 2.54)
          (name "Shield" (effects (font (size 1.27 1.27))))
          (number "6" (effects (font (size 1.27 1.27))))
        )
      )
    )
    (symbol "Connector_Generic:Conn_01x04" (pin_names (offset 1.016) hide) (in_bom yes) (on_board yes)
      (property "Reference" "J" (id 0) (at 0 5.08 0)
        (effects (font (size 1.27 1.27)))
      )
      (property "Value" "Conn_01x04" (id 1) (at 0 -7.62 0)
        (effects (font (size 1.27 1.27)))
      )
      (property "Footprint" "" (id 2) (at 0 0 0)
        (effects (font (size 1.27 1.27)) hide)
      )
      (property "Datasheet" "~" (id 3) (at 0 0 0)
        (effects (font (size 1.27 1.27)) hide)
      )
      (property "ki_keywords" "connector" (id 4) (at 0 0 0)
        (effects (font (size 1.27 1.27)) hide)
      )
      (property "ki_description" "Generic connector, single row, 01x04, script generated (kicad-library-utils/schlib/autogen/connector/)" (id 5) (at 0 0 0)
        (effects (font (size 1.27 1.27)) hide)
      )
      (property "ki_fp_filters" "Connector*:*_1x??_*" (id 6) (at 0 0 0)
        (effects (font (size 1.27 1.27)) hide)
      )
      (symbol "Conn_01x04_1_1"
        (rectangle (start -1.27 -4.953) (end 0 -5.207)
          (stroke (width 0.1524) (type default) (color 0 0 0 0))
          (fill (type none))
        )
        (rectangle (start -1.27 -2.413) (end 0 -2.667)
          (stroke (width 0.1524) (type default) (color 0 0 0 0))
          (fill (type none))
        )
        (rectangle (start -1.27 0.127) (end 0 -0.127)
          (stroke (width 0.1524) (type default) (color 0 0 0 0))
          (fill (type none))
        )
        (rectangle (start -1.27 2.667) (end 0 2.413)
          (stroke (width 0.1524) (type default) (color 0 0 0 0))
          (fill (type none))
        )
        (rectangle (start -1.27 3.81) (end 1.27 -6.35)
          (stroke (width 0.254) (type default) (color 0 0 0 0))
          (fill (type background))
        )
        (pin passive line (at -5.08 2.54 0) (length 3.81)
          (name "Pin_1" (effects (font (size 1.27 1.27))))
          (number "1" (effects (font (size 1.27 1.27))))
        )
        (pin passive line (at -5.08 0 0) (length 3.81)
          (name "Pin_2" (effects (font (size 1.27 1.27))))
          (number "2" (effects (font (size 1.27 1.27))))
        )
        (pin passive line (at -5.08 -2.54 0) (length 3.81)
          (name "Pin_3" (effects (font (size 1.27 1.27))))
          (number "3" (effects (font (size 1.27 1.27))))
        )
        (pin passive line (at -5.08 -5.08 0) (length 3.81)
          (name "Pin_4" (effects (font (size 1.27 1.27))))
          (number "4" (effects (font (size 1.27 1.27))))
        )
      )
    )
    (symbol "Device:C" (pin_numbers hide) (pin_names (offset 0.254)) (in_bom yes) (on_board yes)
      (property "Reference" "C" (id 0) (at 0.635 2.54 0)
        (effects (font (size 1.27 1.27)) (justify left))
      )
      (property "Value" "C" (id 1) (at 0.635 -2.54 0)
        (effects (font (size 1.27 1.27)) (justify left))
      )
      (property "Footprint" "" (id 2) (at 0.9652 -3.81 0)
        (effects (font (size 1.27 1.27)) hide)
      )
      (property "Datasheet" "~" (id 3) (at 0 0 0)
        (effects (font (size 1.27 1.27)) hide)
      )
      (property "ki_keywords" "cap capacitor" (id 4) (at 0 0 0)
        (effects (font (size 1.27 1.27)) hide)
      )
      (property "ki_description" "Unpolarized capacitor" (id 5) (at 0 0 0)
        (effects (font (size 1.27 1.27)) hide)
      )
      (property "ki_fp_filters" "C_*" (id 6) (at 0 0 0)
        (effects (font (size 1.27 1.27)) hide)
      )
      (symbol "C_0_1"
        (polyline
          (pts
            (xy -2.032 -0.762)
            (xy 2.032 -0.762)
          )
          (stroke (width 0.508) (type default) (color 0 0 0 0))
          (fill (type none))
        )
        (polyline
          (pts
            (xy -2.032 0.762)
            (xy 2.032 0.762)
          )
          (stroke (width 0.508) (type default) (color 0 0 0 0))
          (fill (type none))
        )
      )
      (symbol "C_1_1"
        (pin passive line (at 0 3.81 270) (length 2.794)
          (name "~" (effects (font (size 1.27 1.27))))
          (number "1" (effects (font (size 1.27 1.27))))
        )
        (pin passive line (at 0 -3.81 90) (length 2.794)
          (name "~" (effects (font (size 1.27 1.27))))
          (number "2" (effects (font (size 1.27 1.27))))
        )
      )
    )
    (symbol "Device:C_Polarized" (pin_numbers hide) (pin_names (offset 0.254)) (in_bom yes) (on_board yes)
      (property "Reference" "C" (id 0) (at 0.635 2.54 0)
        (effects (font (size 1.27 1.27)) (justify left))
      )
      (property "Value" "C_Polarized" (id 1) (at 0.635 -2.54 0)
        (effects (font (size 1.27 1.27)) (justify left))
      )
      (property "Footprint" "" (id 2) (at 0.9652 -3.81 0)
        (effects (font (size 1.27 1.27)) hide)
      )
      (property "Datasheet" "~" (id 3) (at 0 0 0)
        (effects (font (size 1.27 1.27)) hide)
      )
      (property "ki_keywords" "cap capacitor" (id 4) (at 0 0 0)
        (effects (font (size 1.27 1.27)) hide)
      )
      (property "ki_description" "Polarized capacitor" (id 5) (at 0 0 0)
        (effects (font (size 1.27 1.27)) hide)
      )
      (property "ki_fp_filters" "CP_*" (id 6) (at 0 0 0)
        (effects (font (size 1.27 1.27)) hide)
      )
      (symbol "C_Polarized_0_1"
        (rectangle (start -2.286 0.508) (end 2.286 1.016)
          (stroke (width 0) (type default) (color 0 0 0 0))
          (fill (type none))
        )
        (polyline
          (pts
            (xy -1.778 2.286)
            (xy -0.762 2.286)
          )
          (stroke (width 0) (type default) (color 0 0 0 0))
          (fill (type none))
        )
        (polyline
          (pts
            (xy -1.27 2.794)
            (xy -1.27 1.778)
          )
          (stroke (width 0) (type default) (color 0 0 0 0))
          (fill (type none))
        )
        (rectangle (start 2.286 -0.508) (end -2.286 -1.016)
          (stroke (width 0) (type default) (color 0 0 0 0))
          (fill (type outline))
        )
      )
      (symbol "C_Polarized_1_1"
        (pin passive line (at 0 3.81 270) (length 2.794)
          (name "~" (effects (font (size 1.27 1.27))))
          (number "1" (effects (font (size 1.27 1.27))))
        )
        (pin passive line (at 0 -3.81 90) (length 2.794)
          (name "~" (effects (font (size 1.27 1.27))))
          (number "2" (effects (font (size 1.27 1.27))))
        )
      )
    )
    (symbol "Device:FerriteBead_Small" (pin_numbers hide) (pin_names (offset 0)) (in_bom yes) (on_board yes)
      (property "Reference" "FB" (id 0) (at 1.905 1.27 0)
        (effects (font (size 1.27 1.27)) (justify left))
      )
      (property "Value" "FerriteBead_Small" (id 1) (at 1.905 -1.27 0)
        (effects (font (size 1.27 1.27)) (justify left))
      )
      (property "Footprint" "" (id 2) (at -1.778 0 90)
        (effects (font (size 1.27 1.27)) hide)
      )
      (property "Datasheet" "~" (id 3) (at 0 0 0)
        (effects (font (size 1.27 1.27)) hide)
      )
      (property "ki_keywords" "L ferrite bead inductor filter" (id 4) (at 0 0 0)
        (effects (font (size 1.27 1.27)) hide)
      )
      (property "ki_description" "Ferrite bead, small symbol" (id 5) (at 0 0 0)
        (effects (font (size 1.27 1.27)) hide)
      )
      (property "ki_fp_filters" "Inductor_* L_* *Ferrite*" (id 6) (at 0 0 0)
        (effects (font (size 1.27 1.27)) hide)
      )
      (symbol "FerriteBead_Small_0_1"
        (polyline
          (pts
            (xy 0 -1.27)
            (xy 0 -0.7874)
          )
          (stroke (width 0) (type default) (color 0 0 0 0))
          (fill (type none))
        )
        (polyline
          (pts
            (xy 0 0.889)
            (xy 0 1.2954)
          )
          (stroke (width 0) (type default) (color 0 0 0 0))
          (fill (type none))
        )
        (polyline
          (pts
            (xy -1.8288 0.2794)
            (xy -1.1176 1.4986)
            (xy 1.8288 -0.2032)
            (xy 1.1176 -1.4224)
            (xy -1.8288 0.2794)
          )
          (stroke (width 0) (type default) (color 0 0 0 0))
          (fill (type none))
        )
      )
      (symbol "FerriteBead_Small_1_1"
        (pin passive line (at 0 2.54 270) (length 1.27)
          (name "~" (effects (font (size 1.27 1.27))))
          (number "1" (effects (font (size 1.27 1.27))))
        )
        (pin passive line (at 0 -2.54 90) (length 1.27)
          (name "~" (effects (font (size 1.27 1.27))))
          (number "2" (effects (font (size 1.27 1.27))))
        )
      )
    )
    (symbol "Device:LED" (pin_numbers hide) (pin_names (offset 1.016) hide) (in_bom yes) (on_board yes)
      (property "Reference" "D" (id 0) (at 0 2.54 0)
        (effects (font (size 1.27 1.27)))
      )
      (property "Value" "LED" (id 1) (at 0 -2.54 0)
        (effects (font (size 1.27 1.27)))
      )
      (property "Footprint" "" (id 2) (at 0 0 0)
        (effects (font (size 1.27 1.27)) hide)
      )
      (property "Datasheet" "~" (id 3) (at 0 0 0)
        (effects (font (size 1.27 1.27)) hide)
      )
      (property "ki_keywords" "LED diode" (id 4) (at 0 0 0)
        (effects (font (size 1.27 1.27)) hide)
      )
      (property "ki_description" "Light emitting diode" (id 5) (at 0 0 0)
        (effects (font (size 1.27 1.27)) hide)
      )
      (property "ki_fp_filters" "LED* LED_SMD:* LED_THT:*" (id 6) (at 0 0 0)
        (effects (font (size 1.27 1.27)) hide)
      )
      (symbol "LED_0_1"
        (polyline
          (pts
            (xy -1.27 -1.27)
            (xy -1.27 1.27)
          )
          (stroke (width 0.254) (type default) (color 0 0 0 0))
          (fill (type none))
        )
        (polyline
          (pts
            (xy -1.27 0)
            (xy 1.27 0)
          )
          (stroke (width 0) (type default) (color 0 0 0 0))
          (fill (type none))
        )
        (polyline
          (pts
            (xy 1.27 -1.27)
            (xy 1.27 1.27)
            (xy -1.27 0)
            (xy 1.27 -1.27)
          )
          (stroke (width 0.254) (type default) (color 0 0 0 0))
          (fill (type none))
        )
        (polyline
          (pts
            (xy -3.048 -0.762)
            (xy -4.572 -2.286)
            (xy -3.81 -2.286)
            (xy -4.572 -2.286)
            (xy -4.572 -1.524)
          )
          (stroke (width 0) (type default) (color 0 0 0 0))
          (fill (type none))
        )
        (polyline
          (pts
            (xy -1.778 -0.762)
            (xy -3.302 -2.286)
            (xy -2.54 -2.286)
            (xy -3.302 -2.286)
            (xy -3.302 -1.524)
          )
          (stroke (width 0) (type default) (color 0 0 0 0))
          (fill (type none))
        )
      )
      (symbol "LED_1_1"
        (pin passive line (at -3.81 0 0) (length 2.54)
          (name "K" (effects (font (size 1.27 1.27))))
          (number "1" (effects (font (size 1.27 1.27))))
        )
        (pin passive line (at 3.81 0 180) (length 2.54)
          (name "A" (effects (font (size 1.27 1.27))))
          (number "2" (effects (font (size 1.27 1.27))))
        )
      )
    )
    (symbol "Device:R" (pin_numbers hide) (pin_names (offset 0)) (in_bom yes) (on_board yes)
      (property "Reference" "R" (id 0) (at 2.032 0 90)
        (effects (font (size 1.27 1.27)))
      )
      (property "Value" "R" (id 1) (at 0 0 90)
        (effects (font (size 1.27 1.27)))
      )
      (property "Footprint" "" (id 2) (at -1.778 0 90)
        (effects (font (size 1.27 1.27)) hide)
      )
      (property "Datasheet" "~" (id 3) (at 0 0 0)
        (effects (font (size 1.27 1.27)) hide)
      )
      (property "ki_keywords" "R res resistor" (id 4) (at 0 0 0)
        (effects (font (size 1.27 1.27)) hide)
      )
      (property "ki_description" "Resistor" (id 5) (at 0 0 0)
        (effects (font (size 1.27 1.27)) hide)
      )
      (property "ki_fp_filters" "R_*" (id 6) (at 0 0 0)
        (effects (font (size 1.27 1.27)) hide)
      )
      (symbol "R_0_1"
        (rectangle (start -1.016 -2.54) (end 1.016 2.54)
          (stroke (width 0.254) (type default) (color 0 0 0 0))
          (fill (type none))
        )
      )
      (symbol "R_1_1"
        (pin passive line (at 0 3.81 270) (length 1.27)
          (name "~" (effects (font (size 1.27 1.27))))
          (number "1" (effects (font (size 1.27 1.27))))
        )
        (pin passive line (at 0 -3.81 90) (length 1.27)
          (name "~" (effects (font (size 1.27 1.27))))
          (number "2" (effects (font (size 1.27 1.27))))
        )
      )
    )
    (symbol "Mechanical:MountingHole" (pin_names (offset 1.016)) (in_bom yes) (on_board yes)
      (property "Reference" "H" (id 0) (at 0 5.08 0)
        (effects (font (size 1.27 1.27)))
      )
      (property "Value" "MountingHole" (id 1) (at 0 3.175 0)
        (effects (font (size 1.27 1.27)))
      )
      (property "Footprint" "" (id 2) (at 0 0 0)
        (effects (font (size 1.27 1.27)) hide)
      )
      (property "Datasheet" "~" (id 3) (at 0 0 0)
        (effects (font (size 1.27 1.27)) hide)
      )
      (property "ki_keywords" "mounting hole" (id 4) (at 0 0 0)
        (effects (font (size 1.27 1.27)) hide)
      )
      (property "ki_description" "Mounting Hole without connection" (id 5) (at 0 0 0)
        (effects (font (size 1.27 1.27)) hide)
      )
      (property "ki_fp_filters" "MountingHole*" (id 6) (at 0 0 0)
        (effects (font (size 1.27 1.27)) hide)
      )
      (symbol "MountingHole_0_1"
        (circle (center 0 0) (radius 1.27)
          (stroke (width 1.27) (type default) (color 0 0 0 0))
          (fill (type none))
        )
      )
    )
    (symbol "PhysikIIIA:PL2303HXD" (in_bom yes) (on_board yes)
      (property "Reference" "U" (id 0) (at -16.51 22.86 0)
        (effects (font (size 1.27 1.27)) (justify left))
      )
      (property "Value" "PL2303HXD" (id 1) (at 6.35 21.59 0)
        (effects (font (size 1.27 1.27)) (justify left))
      )
      (property "Footprint" "Package_SO:SSOP-28_5.3x10.2mm_P0.65mm" (id 2) (at 27.94 -22.86 0)
        (effects (font (size 1.27 1.27)) hide)
      )
      (property "Datasheet" "https://cdn-shop.adafruit.com/datasheets/PL2303HX.pdf" (id 3) (at 0 40.64 0)
        (effects (font (size 1.27 1.27)) hide)
      )
      (property "ki_keywords" "Prolific USB Serial" (id 4) (at 0 0 0)
        (effects (font (size 1.27 1.27)) hide)
      )
      (property "ki_description" "USB to Serial Interface, SSOP-28" (id 5) (at 0 0 0)
        (effects (font (size 1.27 1.27)) hide)
      )
      (property "ki_fp_filters" "SSOP*5.3x10.2mm*P0.65mm*" (id 6) (at 0 0 0)
        (effects (font (size 1.27 1.27)) hide)
      )
      (symbol "PL2303HXD_0_1"
        (rectangle (start -15.24 20.32) (end 15.24 -21.59)
          (stroke (width 0.254) (type default) (color 0 0 0 0))
          (fill (type background))
        )
      )
      (symbol "PL2303HXD_1_1"
        (pin output line (at 17.78 17.78 180) (length 2.54)
          (name "TXD" (effects (font (size 1.27 1.27))))
          (number "1" (effects (font (size 1.27 1.27))))
        )
        (pin input line (at 17.78 2.54 180) (length 2.54)
          (name "~{DCD}" (effects (font (size 1.27 1.27))))
          (number "10" (effects (font (size 1.27 1.27))))
        )
        (pin input line (at 17.78 10.16 180) (length 2.54)
          (name "~{CTS}" (effects (font (size 1.27 1.27))))
          (number "11" (effects (font (size 1.27 1.27))))
        )
        (pin input line (at 17.78 -17.78 180) (length 2.54)
          (name "~{SHTD}" (effects (font (size 1.27 1.27))))
          (number "12" (effects (font (size 1.27 1.27))))
        )
        (pin bidirectional line (at 17.78 -12.7 180) (length 2.54)
          (name "GP3" (effects (font (size 1.27 1.27))))
          (number "13" (effects (font (size 1.27 1.27))))
        )
        (pin bidirectional line (at 17.78 -10.16 180) (length 2.54)
          (name "GP2" (effects (font (size 1.27 1.27))))
          (number "14" (effects (font (size 1.27 1.27))))
        )
        (pin bidirectional line (at -17.78 10.16 0) (length 2.54)
          (name "DP" (effects (font (size 1.27 1.27))))
          (number "15" (effects (font (size 1.27 1.27))))
        )
        (pin bidirectional line (at -17.78 7.62 0) (length 2.54)
          (name "DM" (effects (font (size 1.27 1.27))))
          (number "16" (effects (font (size 1.27 1.27))))
        )
        (pin power_out line (at 5.08 22.86 270) (length 2.54)
          (name "3V3OUT" (effects (font (size 1.27 1.27))))
          (number "17" (effects (font (size 1.27 1.27))))
        )
        (pin passive line (at 0 -24.13 90) (length 2.54) hide
          (name "GND" (effects (font (size 1.27 1.27))))
          (number "18" (effects (font (size 1.27 1.27))))
        )
        (pin input line (at -17.78 17.78 0) (length 2.54)
          (name "~{RESET}" (effects (font (size 1.27 1.27))))
          (number "19" (effects (font (size 1.27 1.27))))
        )
        (pin output line (at 17.78 7.62 180) (length 2.54)
          (name "~{DTS}" (effects (font (size 1.27 1.27))))
          (number "2" (effects (font (size 1.27 1.27))))
        )
        (pin power_in line (at -2.54 22.86 270) (length 2.54)
          (name "VDD_5" (effects (font (size 1.27 1.27))))
          (number "20" (effects (font (size 1.27 1.27))))
        )
        (pin no_connect line (at 2.54 -21.59 90) (length 2.54) hide
          (name "NC" (effects (font (size 1.27 1.27))))
          (number "21" (effects (font (size 1.27 1.27))))
        )
        (pin bidirectional line (at 17.78 -5.08 180) (length 2.54)
          (name "GP0" (effects (font (size 1.27 1.27))))
          (number "22" (effects (font (size 1.27 1.27))))
        )
        (pin bidirectional line (at 17.78 -7.62 180) (length 2.54)
          (name "GP1" (effects (font (size 1.27 1.27))))
          (number "23" (effects (font (size 1.27 1.27))))
        )
        (pin no_connect line (at -2.54 -21.59 90) (length 2.54) hide
          (name "NC" (effects (font (size 1.27 1.27))))
          (number "24" (effects (font (size 1.27 1.27))))
        )
        (pin passive line (at 0 -24.13 90) (length 2.54) hide
          (name "GND" (effects (font (size 1.27 1.27))))
          (number "25" (effects (font (size 1.27 1.27))))
        )
        (pin input line (at -17.78 -17.78 0) (length 2.54)
          (name "TEST" (effects (font (size 1.27 1.27))))
          (number "26" (effects (font (size 1.27 1.27))))
        )
        (pin no_connect line (at -5.08 -21.59 90) (length 2.54) hide
          (name "NC" (effects (font (size 1.27 1.27))))
          (number "27" (effects (font (size 1.27 1.27))))
        )
        (pin no_connect line (at -17.78 -15.24 0) (length 2.54)
          (name "Reserved" (effects (font (size 1.27 1.27))))
          (number "28" (effects (font (size 1.27 1.27))))
        )
        (pin output line (at 17.78 12.7 180) (length 2.54)
          (name "~{RTS}" (effects (font (size 1.27 1.27))))
          (number "3" (effects (font (size 1.27 1.27))))
        )
        (pin power_in line (at 2.54 22.86 270) (length 2.54)
          (name "VDD_325" (effects (font (size 1.27 1.27))))
          (number "4" (effects (font (size 1.27 1.27))))
        )
        (pin input line (at 17.78 15.24 180) (length 2.54)
          (name "RXD" (effects (font (size 1.27 1.27))))
          (number "5" (effects (font (size 1.27 1.27))))
        )
        (pin input line (at 17.78 0 180) (length 2.54)
          (name "~{RI}" (effects (font (size 1.27 1.27))))
          (number "6" (effects (font (size 1.27 1.27))))
        )
        (pin power_in line (at 0 -24.13 90) (length 2.54)
          (name "GND" (effects (font (size 1.27 1.27))))
          (number "7" (effects (font (size 1.27 1.27))))
        )
        (pin no_connect line (at 5.08 -21.59 90) (length 2.54) hide
          (name "NC" (effects (font (size 1.27 1.27))))
          (number "8" (effects (font (size 1.27 1.27))))
        )
        (pin input line (at 17.78 5.08 180) (length 2.54)
          (name "~{DSR}" (effects (font (size 1.27 1.27))))
          (number "9" (effects (font (size 1.27 1.27))))
        )
      )
    )
    (symbol "power:+3V3" (power) (pin_names (offset 0)) (in_bom yes) (on_board yes)
      (property "Reference" "#PWR" (id 0) (at 0 -3.81 0)
        (effects (font (size 1.27 1.27)) hide)
      )
      (property "Value" "+3V3" (id 1) (at 0 3.556 0)
        (effects (font (size 1.27 1.27)))
      )
      (property "Footprint" "" (id 2) (at 0 0 0)
        (effects (font (size 1.27 1.27)) hide)
      )
      (property "Datasheet" "" (id 3) (at 0 0 0)
        (effects (font (size 1.27 1.27)) hide)
      )
      (property "ki_keywords" "power-flag" (id 4) (at 0 0 0)
        (effects (font (size 1.27 1.27)) hide)
      )
      (property "ki_description" "Power symbol creates a global label with name \"+3V3\"" (id 5) (at 0 0 0)
        (effects (font (size 1.27 1.27)) hide)
      )
      (symbol "+3V3_0_1"
        (polyline
          (pts
            (xy -0.762 1.27)
            (xy 0 2.54)
          )
          (stroke (width 0) (type default) (color 0 0 0 0))
          (fill (type none))
        )
        (polyline
          (pts
            (xy 0 0)
            (xy 0 2.54)
          )
          (stroke (width 0) (type default) (color 0 0 0 0))
          (fill (type none))
        )
        (polyline
          (pts
            (xy 0 2.54)
            (xy 0.762 1.27)
          )
          (stroke (width 0) (type default) (color 0 0 0 0))
          (fill (type none))
        )
      )
      (symbol "+3V3_1_1"
        (pin power_in line (at 0 0 90) (length 0) hide
          (name "+3V3" (effects (font (size 1.27 1.27))))
          (number "1" (effects (font (size 1.27 1.27))))
        )
      )
    )
    (symbol "power:+5V" (power) (pin_names (offset 0)) (in_bom yes) (on_board yes)
      (property "Reference" "#PWR" (id 0) (at 0 -3.81 0)
        (effects (font (size 1.27 1.27)) hide)
      )
      (property "Value" "+5V" (id 1) (at 0 3.556 0)
        (effects (font (size 1.27 1.27)))
      )
      (property "Footprint" "" (id 2) (at 0 0 0)
        (effects (font (size 1.27 1.27)) hide)
      )
      (property "Datasheet" "" (id 3) (at 0 0 0)
        (effects (font (size 1.27 1.27)) hide)
      )
      (property "ki_keywords" "power-flag" (id 4) (at 0 0 0)
        (effects (font (size 1.27 1.27)) hide)
      )
      (property "ki_description" "Power symbol creates a global label with name \"+5V\"" (id 5) (at 0 0 0)
        (effects (font (size 1.27 1.27)) hide)
      )
      (symbol "+5V_0_1"
        (polyline
          (pts
            (xy -0.762 1.27)
            (xy 0 2.54)
          )
          (stroke (width 0) (type default) (color 0 0 0 0))
          (fill (type none))
        )
        (polyline
          (pts
            (xy 0 0)
            (xy 0 2.54)
          )
          (stroke (width 0) (type default) (color 0 0 0 0))
          (fill (type none))
        )
        (polyline
          (pts
            (xy 0 2.54)
            (xy 0.762 1.27)
          )
          (stroke (width 0) (type default) (color 0 0 0 0))
          (fill (type none))
        )
      )
      (symbol "+5V_1_1"
        (pin power_in line (at 0 0 90) (length 0) hide
          (name "+5V" (effects (font (size 1.27 1.27))))
          (number "1" (effects (font (size 1.27 1.27))))
        )
      )
    )
    (symbol "power:GND" (power) (pin_names (offset 0)) (in_bom yes) (on_board yes)
      (property "Reference" "#PWR" (id 0) (at 0 -6.35 0)
        (effects (font (size 1.27 1.27)) hide)
      )
      (property "Value" "GND" (id 1) (at 0 -3.81 0)
        (effects (font (size 1.27 1.27)))
      )
      (property "Footprint" "" (id 2) (at 0 0 0)
        (effects (font (size 1.27 1.27)) hide)
      )
      (property "Datasheet" "" (id 3) (at 0 0 0)
        (effects (font (size 1.27 1.27)) hide)
      )
      (property "ki_keywords" "power-flag" (id 4) (at 0 0 0)
        (effects (font (size 1.27 1.27)) hide)
      )
      (property "ki_description" "Power symbol creates a global label with name \"GND\" , ground" (id 5) (at 0 0 0)
        (effects (font (size 1.27 1.27)) hide)
      )
      (symbol "GND_0_1"
        (polyline
          (pts
            (xy 0 0)
            (xy 0 -1.27)
            (xy 1.27 -1.27)
            (xy 0 -2.54)
            (xy -1.27 -1.27)
            (xy 0 -1.27)
          )
          (stroke (width 0) (type default) (color 0 0 0 0))
          (fill (type none))
        )
      )
      (symbol "GND_1_1"
        (pin power_in line (at 0 0 270) (length 0) hide
          (name "GND" (effects (font (size 1.27 1.27))))
          (number "1" (effects (font (size 1.27 1.27))))
        )
      )
    )
  )

  (junction (at 109.22 73.66) (diameter 0) (color 0 0 0 0)
    (uuid 067e658b-528c-4def-917c-30e63e1c90a8)
  )
  (junction (at 201.93 91.44) (diameter 0) (color 0 0 0 0)
    (uuid 3984e180-1869-41ec-9480-0434c3422fce)
  )
  (junction (at 154.94 54.61) (diameter 0) (color 0 0 0 0)
    (uuid 51132b87-551c-4b29-ab8b-5da8f39decdc)
  )
  (junction (at 39.37 95.25) (diameter 0) (color 0 0 0 0)
    (uuid 6d00aaaf-f034-418b-8c08-319e07890fd1)
  )
  (junction (at 39.37 85.09) (diameter 0) (color 0 0 0 0)
    (uuid 8d181075-2345-427b-8596-ec5a75c70025)
  )
  (junction (at 193.04 66.04) (diameter 0) (color 0 0 0 0)
    (uuid 8f528671-d5d6-4c33-af6d-e9b772225709)
  )
  (junction (at 203.2 68.58) (diameter 0) (color 0 0 0 0)
    (uuid 9c262296-64cb-4f14-bc31-bdd386665aa0)
  )
  (junction (at 45.72 95.25) (diameter 0) (color 0 0 0 0)
    (uuid b48c750d-66ac-4864-b724-cd742c93f017)
  )
  (junction (at 201.93 81.28) (diameter 0) (color 0 0 0 0)
    (uuid cb258564-2cab-4598-b94e-90c02df31a88)
  )
  (junction (at 57.15 53.34) (diameter 0) (color 0 0 0 0)
    (uuid f8edd94d-e22a-4187-bca6-292428dc453f)
  )

  (no_connect (at 53.34 78.74) (uuid 563b46d5-a373-458f-a4c2-52a3d13e4af7))
  (no_connect (at 167.64 88.9) (uuid b25a6e7f-ac8f-4fb5-9236-f417632edc9d))
  (no_connect (at 167.64 91.44) (uuid b25a6e7f-ac8f-4fb5-9236-f417632edc9e))
  (no_connect (at 184.15 83.82) (uuid e1caea8b-4c9c-4874-ac27-890a0b39bc64))
  (no_connect (at 184.15 76.2) (uuid e1caea8b-4c9c-4874-ac27-890a0b39bc65))
  (no_connect (at 184.15 78.74) (uuid e1caea8b-4c9c-4874-ac27-890a0b39bc66))
  (no_connect (at 184.15 71.12) (uuid e1caea8b-4c9c-4874-ac27-890a0b39bc67))
  (no_connect (at 184.15 73.66) (uuid e1caea8b-4c9c-4874-ac27-890a0b39bc68))

  (wire (pts (xy 203.2 68.58) (xy 227.33 68.58))
    (stroke (width 0) (type default) (color 0 0 0 0))
    (uuid 022b017e-99b4-4e98-8c7a-a1805faae442)
  )
  (wire (pts (xy 45.72 101.6) (xy 45.72 102.87))
    (stroke (width 0) (type default) (color 0 0 0 0))
    (uuid 041ffb57-8869-4f26-a942-a1627a85742e)
  )
  (wire (pts (xy 91.44 114.3) (xy 91.44 119.38))
    (stroke (width 0) (type default) (color 0 0 0 0))
    (uuid 04b59968-7a05-4d69-bb25-b546d73a2e96)
  )
  (wire (pts (xy 193.04 43.18) (xy 193.04 45.72))
    (stroke (width 0) (type default) (color 0 0 0 0))
    (uuid 04daaeb4-666b-42cc-a661-b5788b4f13fa)
  )
  (wire (pts (xy 53.34 73.66) (xy 109.22 73.66))
    (stroke (width 0) (type default) (color 0 0 0 0))
    (uuid 0761de31-fa3e-4105-9721-8be56e1c26e3)
  )
  (wire (pts (xy 109.22 52.07) (xy 109.22 62.23))
    (stroke (width 0) (type default) (color 0 0 0 0))
    (uuid 0dc4201b-2e4b-4a20-858c-7320457cb79a)
  )
  (wire (pts (xy 39.37 85.09) (xy 31.75 85.09))
    (stroke (width 0) (type default) (color 0 0 0 0))
    (uuid 1823c49c-d96d-4735-8b96-ad8928a09903)
  )
  (wire (pts (xy 227.33 63.5) (xy 224.79 63.5))
    (stroke (width 0) (type default) (color 0 0 0 0))
    (uuid 18289365-c1f0-4c9c-a7bf-d219fc3d827d)
  )
  (wire (pts (xy 167.64 71.12) (xy 184.15 71.12))
    (stroke (width 0) (type default) (color 0 0 0 0))
    (uuid 1a289dcf-69c9-49a0-bec6-52d900eb2efb)
  )
  (wire (pts (xy 147.32 52.07) (xy 147.32 60.96))
    (stroke (width 0) (type default) (color 0 0 0 0))
    (uuid 1baac7bd-5ef0-42a5-bfd2-977c57745644)
  )
  (wire (pts (xy 132.08 66.04) (xy 125.73 66.04))
    (stroke (width 0) (type default) (color 0 0 0 0))
    (uuid 1c9ae216-767d-4fb5-856c-8bb60790a184)
  )
  (wire (pts (xy 203.2 53.34) (xy 203.2 55.88))
    (stroke (width 0) (type default) (color 0 0 0 0))
    (uuid 204f196e-c2c2-4332-98df-6b9259606f04)
  )
  (wire (pts (xy 125.73 52.07) (xy 125.73 66.04))
    (stroke (width 0) (type default) (color 0 0 0 0))
    (uuid 20c40b56-75bd-4820-b4b6-5e001372aebe)
  )
  (wire (pts (xy 167.64 78.74) (xy 184.15 78.74))
    (stroke (width 0) (type default) (color 0 0 0 0))
    (uuid 22ba7011-af16-481a-be60-4832e2fa49b7)
  )
  (wire (pts (xy 185.42 91.44) (xy 187.96 91.44))
    (stroke (width 0) (type default) (color 0 0 0 0))
    (uuid 275f62e6-6c8d-48ac-b688-caeeca83d4ad)
  )
  (wire (pts (xy 203.2 63.5) (xy 203.2 68.58))
    (stroke (width 0) (type default) (color 0 0 0 0))
    (uuid 279b577d-1392-4bd9-a4b0-63dd1e6f56b1)
  )
  (wire (pts (xy 154.94 52.07) (xy 154.94 54.61))
    (stroke (width 0) (type default) (color 0 0 0 0))
    (uuid 27fa6315-0d42-48ba-8f2d-70a659ab7e4d)
  )
  (wire (pts (xy 201.93 81.28) (xy 201.93 91.44))
    (stroke (width 0) (type default) (color 0 0 0 0))
    (uuid 2a6988e5-626e-455a-b62a-fc3d91bf5ed9)
  )
  (wire (pts (xy 172.72 91.44) (xy 172.72 93.98))
    (stroke (width 0) (type default) (color 0 0 0 0))
    (uuid 2ac3861b-66bc-4615-9c33-2032f0d3782b)
  )
  (wire (pts (xy 124.46 73.66) (xy 132.08 73.66))
    (stroke (width 0) (type default) (color 0 0 0 0))
    (uuid 3317fe4b-f0fe-48e9-953f-e7189042daa0)
  )
  (wire (pts (xy 57.15 62.23) (xy 57.15 68.58))
    (stroke (width 0) (type default) (color 0 0 0 0))
    (uuid 3376bd56-9efd-4f2b-852a-e2dafccb6289)
  )
  (wire (pts (xy 224.79 71.12) (xy 224.79 73.66))
    (stroke (width 0) (type default) (color 0 0 0 0))
    (uuid 392f7038-6e6c-4213-89de-22a308ba35ac)
  )
  (wire (pts (xy 167.64 66.04) (xy 193.04 66.04))
    (stroke (width 0) (type default) (color 0 0 0 0))
    (uuid 3adcddba-2d00-4a77-a7d7-16f1fa3f00be)
  )
  (wire (pts (xy 57.15 52.07) (xy 57.15 53.34))
    (stroke (width 0) (type default) (color 0 0 0 0))
    (uuid 3c0f1454-c2fc-426d-86cc-7a2ea874c563)
  )
  (wire (pts (xy 82.55 100.33) (xy 82.55 106.68))
    (stroke (width 0) (type default) (color 0 0 0 0))
    (uuid 420ef2d0-1e4f-4a61-82c0-6ed2d37062ec)
  )
  (wire (pts (xy 82.55 114.3) (xy 82.55 119.38))
    (stroke (width 0) (type default) (color 0 0 0 0))
    (uuid 4371c881-d9d0-4ac0-a4c9-07d96c64fcb3)
  )
  (wire (pts (xy 167.64 83.82) (xy 184.15 83.82))
    (stroke (width 0) (type default) (color 0 0 0 0))
    (uuid 479097ab-e3d0-447b-aae4-7b0052552ef6)
  )
  (wire (pts (xy 177.8 91.44) (xy 172.72 91.44))
    (stroke (width 0) (type default) (color 0 0 0 0))
    (uuid 4905fe46-0658-4130-a90b-f9193dd33613)
  )
  (wire (pts (xy 149.86 107.95) (xy 149.86 119.38))
    (stroke (width 0) (type default) (color 0 0 0 0))
    (uuid 49be7129-1abb-4b6d-8b68-d8ea9df2dd12)
  )
  (wire (pts (xy 193.04 66.04) (xy 227.33 66.04))
    (stroke (width 0) (type default) (color 0 0 0 0))
    (uuid 4a73b874-9be7-4302-902b-39e1ab0dc304)
  )
  (wire (pts (xy 203.2 43.18) (xy 203.2 45.72))
    (stroke (width 0) (type default) (color 0 0 0 0))
    (uuid 4b7f4abb-5d8b-4bfa-8fad-9df553cebd0f)
  )
  (wire (pts (xy 31.75 93.98) (xy 31.75 95.25))
    (stroke (width 0) (type default) (color 0 0 0 0))
    (uuid 53b763f6-0f4a-483a-99d8-b7bdec1c304c)
  )
  (wire (pts (xy 195.58 81.28) (xy 201.93 81.28))
    (stroke (width 0) (type default) (color 0 0 0 0))
    (uuid 5b6b8029-a1ea-4131-9ba1-c9a88d25db88)
  )
  (wire (pts (xy 53.34 76.2) (xy 116.84 76.2))
    (stroke (width 0) (type default) (color 0 0 0 0))
    (uuid 5bbbbe78-9654-4e0c-9114-6eaf87576992)
  )
  (wire (pts (xy 31.75 95.25) (xy 39.37 95.25))
    (stroke (width 0) (type default) (color 0 0 0 0))
    (uuid 5d3c0bc7-1196-41e5-a861-8b913dfc1e32)
  )
  (wire (pts (xy 39.37 85.09) (xy 39.37 86.36))
    (stroke (width 0) (type default) (color 0 0 0 0))
    (uuid 5ea07a90-416f-4344-b26b-9d7805c6b4ca)
  )
  (wire (pts (xy 201.93 78.74) (xy 201.93 81.28))
    (stroke (width 0) (type default) (color 0 0 0 0))
    (uuid 6a26b709-4a84-4b08-bbec-a39573a485f1)
  )
  (wire (pts (xy 73.66 100.33) (xy 73.66 106.68))
    (stroke (width 0) (type default) (color 0 0 0 0))
    (uuid 6ebfabc4-c6cc-4683-8f6c-7f3485076c28)
  )
  (wire (pts (xy 167.64 76.2) (xy 184.15 76.2))
    (stroke (width 0) (type default) (color 0 0 0 0))
    (uuid 70379515-959d-4646-8467-4ecd8407148a)
  )
  (wire (pts (xy 71.12 63.5) (xy 71.12 66.04))
    (stroke (width 0) (type default) (color 0 0 0 0))
    (uuid 712a5460-ca68-481b-a08e-18d441b546e3)
  )
  (wire (pts (xy 167.64 73.66) (xy 184.15 73.66))
    (stroke (width 0) (type default) (color 0 0 0 0))
    (uuid 719421a3-64ab-42be-82c4-287bbaf79c49)
  )
  (wire (pts (xy 91.44 100.33) (xy 91.44 106.68))
    (stroke (width 0) (type default) (color 0 0 0 0))
    (uuid 748e43d3-9001-4f63-a863-23cf8ba27b22)
  )
  (wire (pts (xy 45.72 83.82) (xy 45.72 95.25))
    (stroke (width 0) (type default) (color 0 0 0 0))
    (uuid 7ab86e73-fcdc-4d88-a3e7-c6becf0b2392)
  )
  (wire (pts (xy 57.15 53.34) (xy 57.15 57.15))
    (stroke (width 0) (type default) (color 0 0 0 0))
    (uuid 7bd6c038-eb2f-4d57-919e-b264638b9c11)
  )
  (wire (pts (xy 195.58 91.44) (xy 201.93 91.44))
    (stroke (width 0) (type default) (color 0 0 0 0))
    (uuid 7c0b7ab2-b755-4bea-b076-7d179dc33481)
  )
  (wire (pts (xy 193.04 53.34) (xy 193.04 55.88))
    (stroke (width 0) (type default) (color 0 0 0 0))
    (uuid 7d1c74c7-40f6-4e77-84b8-5ee66975b6ab)
  )
  (wire (pts (xy 101.6 118.11) (xy 101.6 119.38))
    (stroke (width 0) (type default) (color 0 0 0 0))
    (uuid 877e5200-4702-4a9f-91a2-935e2632877b)
  )
  (wire (pts (xy 167.64 81.28) (xy 187.96 81.28))
    (stroke (width 0) (type default) (color 0 0 0 0))
    (uuid 941e76d6-9fd4-4142-8d7c-0459047fe9ad)
  )
  (wire (pts (xy 109.22 69.85) (xy 109.22 73.66))
    (stroke (width 0) (type default) (color 0 0 0 0))
    (uuid 9678e8bb-62a1-4aa5-8d94-6c64e86b8ddd)
  )
  (wire (pts (xy 39.37 95.25) (xy 45.72 95.25))
    (stroke (width 0) (type default) (color 0 0 0 0))
    (uuid 999700f2-f378-42a5-a0be-5f20371bf77e)
  )
  (wire (pts (xy 31.75 85.09) (xy 31.75 86.36))
    (stroke (width 0) (type default) (color 0 0 0 0))
    (uuid 9c48472c-45b6-4ec1-a74c-c38d5209dc65)
  )
  (wire (pts (xy 193.04 63.5) (xy 193.04 66.04))
    (stroke (width 0) (type default) (color 0 0 0 0))
    (uuid a0af0cd7-91fb-40b2-b759-4eed0b5c4383)
  )
  (wire (pts (xy 152.4 60.96) (xy 152.4 54.61))
    (stroke (width 0) (type default) (color 0 0 0 0))
    (uuid a1291ab1-749f-4569-925f-2248e4feb8aa)
  )
  (wire (pts (xy 201.93 91.44) (xy 201.93 96.52))
    (stroke (width 0) (type default) (color 0 0 0 0))
    (uuid a6d3fc2a-5f4d-4606-b96c-9cda7071550a)
  )
  (wire (pts (xy 227.33 71.12) (xy 224.79 71.12))
    (stroke (width 0) (type default) (color 0 0 0 0))
    (uuid ade5e723-92f1-4c55-867f-19b25c1cc8f0)
  )
  (wire (pts (xy 101.6 110.49) (xy 101.6 109.22))
    (stroke (width 0) (type default) (color 0 0 0 0))
    (uuid b0e9873b-271e-4070-a6ee-5685acb58219)
  )
  (wire (pts (xy 53.34 68.58) (xy 57.15 68.58))
    (stroke (width 0) (type default) (color 0 0 0 0))
    (uuid b70ad38c-77d2-48e9-b0de-833b96561dfd)
  )
  (wire (pts (xy 132.08 101.6) (xy 125.73 101.6))
    (stroke (width 0) (type default) (color 0 0 0 0))
    (uuid b931d73d-28fa-4e19-9746-710014bb71a3)
  )
  (wire (pts (xy 43.18 85.09) (xy 39.37 85.09))
    (stroke (width 0) (type default) (color 0 0 0 0))
    (uuid bf4c04fa-6009-45df-a30f-365742d78e1a)
  )
  (wire (pts (xy 185.42 96.52) (xy 187.96 96.52))
    (stroke (width 0) (type default) (color 0 0 0 0))
    (uuid c05c4802-29b6-4a07-b170-40c7508e5342)
  )
  (wire (pts (xy 224.79 63.5) (xy 224.79 52.07))
    (stroke (width 0) (type default) (color 0 0 0 0))
    (uuid c0f82597-84cf-476a-a958-f1fd455852c1)
  )
  (wire (pts (xy 167.64 93.98) (xy 172.72 93.98))
    (stroke (width 0) (type default) (color 0 0 0 0))
    (uuid c25e0462-018a-48e8-beb6-7bd0e504e3cc)
  )
  (wire (pts (xy 39.37 93.98) (xy 39.37 95.25))
    (stroke (width 0) (type default) (color 0 0 0 0))
    (uuid c8fcab5d-620e-4c0b-b4c1-d1d54e59aa0e)
  )
  (wire (pts (xy 71.12 53.34) (xy 57.15 53.34))
    (stroke (width 0) (type default) (color 0 0 0 0))
    (uuid cc192e7c-7ed8-4684-ad5d-439fc0fa27ff)
  )
  (wire (pts (xy 167.64 96.52) (xy 177.8 96.52))
    (stroke (width 0) (type default) (color 0 0 0 0))
    (uuid d9dd8f86-5f18-4b25-b5fe-3d88432ab585)
  )
  (wire (pts (xy 167.64 101.6) (xy 184.15 101.6))
    (stroke (width 0) (type default) (color 0 0 0 0))
    (uuid db9789e0-8a96-44a9-b040-6a3264234a34)
  )
  (wire (pts (xy 152.4 54.61) (xy 154.94 54.61))
    (stroke (width 0) (type default) (color 0 0 0 0))
    (uuid dcaeac13-04f3-4c28-8ea9-119059fc4712)
  )
  (wire (pts (xy 101.6 100.33) (xy 101.6 101.6))
    (stroke (width 0) (type default) (color 0 0 0 0))
    (uuid e2ba1762-f7de-4d00-8a3d-3ab115f5c8ee)
  )
  (wire (pts (xy 73.66 114.3) (xy 73.66 119.38))
    (stroke (width 0) (type default) (color 0 0 0 0))
    (uuid e63ce35e-b650-4f94-a037-90a314d23926)
  )
  (wire (pts (xy 43.18 83.82) (xy 43.18 85.09))
    (stroke (width 0) (type default) (color 0 0 0 0))
    (uuid ec7858ca-261e-4ed9-a637-fc3b53a82274)
  )
  (wire (pts (xy 154.94 54.61) (xy 154.94 60.96))
    (stroke (width 0) (type default) (color 0 0 0 0))
    (uuid ee417954-5e12-4001-9778-182b9490a7e7)
  )
  (wire (pts (xy 45.72 95.25) (xy 45.72 96.52))
    (stroke (width 0) (type default) (color 0 0 0 0))
    (uuid f2dd5c2d-a912-4f9e-9428-fb0f09971f23)
  )
  (wire (pts (xy 71.12 55.88) (xy 71.12 53.34))
    (stroke (width 0) (type default) (color 0 0 0 0))
    (uuid f337986b-28f6-4761-97bd-dea8fb6dbf86)
  )
  (wire (pts (xy 109.22 73.66) (xy 116.84 73.66))
    (stroke (width 0) (type default) (color 0 0 0 0))
    (uuid f51868e6-d7fa-4678-9cf3-c94d789783ca)
  )
  (wire (pts (xy 195.58 96.52) (xy 201.93 96.52))
    (stroke (width 0) (type default) (color 0 0 0 0))
    (uuid f56aa328-97be-4962-8708-78a5eec809fa)
  )
  (wire (pts (xy 125.73 101.6) (xy 125.73 119.38))
    (stroke (width 0) (type default) (color 0 0 0 0))
    (uuid f5bbf19c-5063-4f40-9752-12964bca8af2)
  )
  (wire (pts (xy 124.46 76.2) (xy 132.08 76.2))
    (stroke (width 0) (type default) (color 0 0 0 0))
    (uuid fabb5e74-28d5-45d8-b83e-ede4a7ccbac1)
  )
  (wire (pts (xy 167.64 68.58) (xy 203.2 68.58))
    (stroke (width 0) (type default) (color 0 0 0 0))
    (uuid fcc2bc7c-83cc-4b10-bc45-00f8c1611897)
  )

  (text "UART Idle is high" (at 204.47 57.15 0)
    (effects (font (size 1.27 1.27)) (justify left bottom))
    (uuid 08603410-6ee0-47cc-a60c-081dbed697b5)
  )
  (text "Power\nLED" (at 102.87 107.95 0)
    (effects (font (size 1.27 1.27)) (justify left bottom))
    (uuid 14f7ebab-b563-4a23-92cb-b1071059ca64)
  )
  (text "Pin17" (at 85.09 120.65 0)
    (effects (font (size 1.27 1.27)) (justify left bottom))
    (uuid 21731065-561a-4464-9aca-313859497b66)
  )
  (text "Pin4" (at 76.2 120.65 0)
    (effects (font (size 1.27 1.27)) (justify left bottom))
    (uuid 9194ecc7-2efc-48ea-a648-cd095d129736)
  )
  (text "GPIOs can be controlled with\nhttps://github.com/nekromant/pl2303gpio"
    (at 203.2 96.52 0)
    (effects (font (size 1.27 1.27)) (justify left bottom))
    (uuid 9eecbd23-bd84-429b-9340-c6d7eee0aae4)
  )
  (text "Pin20" (at 67.31 120.65 0)
    (effects (font (size 1.27 1.27)) (justify left bottom))
    (uuid bf88c29c-40f6-4171-82c9-450f91cf28fe)
  )

  (label "TXD" (at 171.45 66.04 0)
    (effects (font (size 1.27 1.27)) (justify left bottom))
    (uuid 1ad8a7b2-d633-4b15-b19b-9e2c75a99c69)
  )
  (label "~{DTS}" (at 171.45 76.2 0)
    (effects (font (size 1.27 1.27)) (justify left bottom))
    (uuid 24a85774-68ea-4128-8117-ca86c1526ffe)
  )
  (label "~{CTS}" (at 171.45 73.66 0)
    (effects (font (size 1.27 1.27)) (justify left bottom))
    (uuid 2a2d5ead-b1d8-482e-a102-e9ab97e3c757)
  )
  (label "~{DCD}" (at 171.45 81.28 0)
    (effects (font (size 1.27 1.27)) (justify left bottom))
    (uuid 3938ba8f-b7af-4923-bec3-28af2ece8be0)
  )
  (label "~{DSR}" (at 171.45 78.74 0)
    (effects (font (size 1.27 1.27)) (justify left bottom))
    (uuid 5bc35ce2-b95f-467d-9e6c-0ddaca2e2172)
  )
  (label "RXD" (at 171.45 68.58 0)
    (effects (font (size 1.27 1.27)) (justify left bottom))
    (uuid 8834f39d-5cef-42bc-840d-311d1c46cf47)
  )
  (label "~{RI}" (at 171.45 83.82 0)
    (effects (font (size 1.27 1.27)) (justify left bottom))
    (uuid bdc7ffbc-905a-4144-a3a7-81f06d39036a)
  )
  (label "~{SHTD}" (at 171.1343 101.6 0)
    (effects (font (size 1.27 1.27)) (justify left bottom))
    (uuid c4e00a0e-852e-4981-a7f4-920d883aec75)
  )
  (label "~{RTS}" (at 171.45 71.12 0)
    (effects (font (size 1.27 1.27)) (justify left bottom))
    (uuid defe8f58-72e2-4555-acd0-9631b0692641)
  )

  (symbol (lib_id "power:+3V3") (at 193.04 43.18 0) (unit 1)
    (in_bom yes) (on_board yes)
    (uuid 03652a83-ff6a-4f96-a455-7e891ea8d728)
    (property "Reference" "#PWR015" (id 0) (at 193.04 46.99 0)
      (effects (font (size 1.27 1.27)) hide)
    )
    (property "Value" "+3V3" (id 1) (at 193.04 38.1 0))
    (property "Footprint" "" (id 2) (at 193.04 43.18 0)
      (effects (font (size 1.27 1.27)) hide)
    )
    (property "Datasheet" "" (id 3) (at 193.04 43.18 0)
      (effects (font (size 1.27 1.27)) hide)
    )
    (pin "1" (uuid 8dd4b26b-e111-4f03-b978-6941516b524d))
  )

  (symbol (lib_id "Device:FerriteBead_Small") (at 57.15 59.69 0) (unit 1)
    (in_bom yes) (on_board yes) (fields_autoplaced)
    (uuid 04e168b3-d155-496f-a77d-57b133a55d20)
    (property "Reference" "FB2" (id 0) (at 59.69 58.3818 0)
      (effects (font (size 1.27 1.27)) (justify left))
    )
    (property "Value" "BLM18" (id 1) (at 59.69 60.9218 0)
      (effects (font (size 1.27 1.27)) (justify left))
    )
    (property "Footprint" "Resistor_SMD:R_0805_2012Metric" (id 2) (at 55.372 59.69 90)
      (effects (font (size 1.27 1.27)) hide)
    )
    (property "Datasheet" "~" (id 3) (at 57.15 59.69 0)
      (effects (font (size 1.27 1.27)) hide)
    )
    (pin "1" (uuid be5dc412-6667-4163-aee6-e1c60dc66b3e))
    (pin "2" (uuid e0d7aee4-dbbf-4177-a029-70c612a322f7))
  )

  (symbol (lib_id "power:GND") (at 149.86 119.38 0) (unit 1)
    (in_bom yes) (on_board yes) (fields_autoplaced)
    (uuid 085c97ca-a4dd-402d-aba4-5347ce7caa82)
    (property "Reference" "#PWR013" (id 0) (at 149.86 125.73 0)
      (effects (font (size 1.27 1.27)) hide)
    )
    (property "Value" "GND" (id 1) (at 149.86 124.46 0))
    (property "Footprint" "" (id 2) (at 149.86 119.38 0)
      (effects (font (size 1.27 1.27)) hide)
    )
    (property "Datasheet" "" (id 3) (at 149.86 119.38 0)
      (effects (font (size 1.27 1.27)) hide)
    )
    (pin "1" (uuid bb550d00-486b-442d-9a92-594eda541dd0))
  )

  (symbol (lib_id "Device:R") (at 101.6 105.41 180) (unit 1)
    (in_bom yes) (on_board yes)
    (uuid 09977476-c901-479d-85f4-0bf88d579a9a)
    (property "Reference" "R10" (id 0) (at 101.6 105.41 90))
    (property "Value" "100R" (id 1) (at 99.06 105.41 90))
    (property "Footprint" "Resistor_SMD:R_0603_1608Metric" (id 2) (at 103.378 105.41 90)
      (effects (font (size 1.27 1.27)) hide)
    )
    (property "Datasheet" "~" (id 3) (at 101.6 105.41 0)
      (effects (font (size 1.27 1.27)) hide)
    )
    (pin "1" (uuid d9eda29e-8a6e-4e91-90ac-d5f99dceefca))
    (pin "2" (uuid 34b65662-4805-4fb8-a1f5-bffc5ad153f4))
  )

  (symbol (lib_id "Connector_Generic:Conn_01x04") (at 232.41 66.04 0) (unit 1)
    (in_bom yes) (on_board yes) (fields_autoplaced)
    (uuid 0b5d9c8f-42e0-48a5-9f77-b8b43630972b)
    (property "Reference" "J2" (id 0) (at 234.95 66.0399 0)
      (effects (font (size 1.27 1.27)) (justify left))
    )
    (property "Value" "Pinheader 01x04" (id 1) (at 234.95 68.5799 0)
      (effects (font (size 1.27 1.27)) (justify left))
    )
    (property "Footprint" "Connector_PinHeader_2.54mm:PinHeader_1x04_P2.54mm_Vertical" (id 2) (at 232.41 66.04 0)
      (effects (font (size 1.27 1.27)) hide)
    )
    (property "Datasheet" "~" (id 3) (at 232.41 66.04 0)
      (effects (font (size 1.27 1.27)) hide)
    )
    (pin "1" (uuid 2e638141-0c28-4315-af9d-44027e961f61))
    (pin "2" (uuid 3192efb3-e37a-4387-b247-464d48a0634d))
    (pin "3" (uuid 02f425f5-10c4-4548-84a0-12b7e902bd72))
    (pin "4" (uuid c3cb9bbe-96ff-45fc-aab0-30e4b1a0da19))
  )

  (symbol (lib_id "power:GND") (at 71.12 66.04 0) (unit 1)
    (in_bom yes) (on_board yes) (fields_autoplaced)
    (uuid 0d2b9f11-b4cf-4286-9181-53f51e45a154)
    (property "Reference" "#PWR03" (id 0) (at 71.12 72.39 0)
      (effects (font (size 1.27 1.27)) hide)
    )
    (property "Value" "GND" (id 1) (at 71.12 71.12 0))
    (property "Footprint" "" (id 2) (at 71.12 66.04 0)
      (effects (font (size 1.27 1.27)) hide)
    )
    (property "Datasheet" "" (id 3) (at 71.12 66.04 0)
      (effects (font (size 1.27 1.27)) hide)
    )
    (pin "1" (uuid 36436cf0-ab5b-4116-9985-5a0842a7166d))
  )

  (symbol (lib_id "power:+5V") (at 73.66 100.33 0) (unit 1)
    (in_bom yes) (on_board yes)
    (uuid 0df2085f-e96a-4f59-9c8d-5dc68f98eeec)
    (property "Reference" "#PWR0101" (id 0) (at 73.66 104.14 0)
      (effects (font (size 1.27 1.27)) hide)
    )
    (property "Value" "+5V" (id 1) (at 73.66 95.25 0))
    (property "Footprint" "" (id 2) (at 73.66 100.33 0)
      (effects (font (size 1.27 1.27)) hide)
    )
    (property "Datasheet" "" (id 3) (at 73.66 100.33 0)
      (effects (font (size 1.27 1.27)) hide)
    )
    (pin "1" (uuid 79d8f17d-0c01-4c26-ad7e-40351188e56a))
  )

  (symbol (lib_id "Device:R") (at 120.65 73.66 90) (unit 1)
    (in_bom yes) (on_board yes)
    (uuid 186841d7-fae1-4680-8006-7c14f06d9909)
    (property "Reference" "R2" (id 0) (at 120.65 73.66 90))
    (property "Value" "27R" (id 1) (at 115.57 72.39 90))
    (property "Footprint" "Resistor_SMD:R_0603_1608Metric" (id 2) (at 120.65 75.438 90)
      (effects (font (size 1.27 1.27)) hide)
    )
    (property "Datasheet" "~" (id 3) (at 120.65 73.66 0)
      (effects (font (size 1.27 1.27)) hide)
    )
    (pin "1" (uuid 608c3ee8-6d1a-4d44-8d8d-2a9364ba889f))
    (pin "2" (uuid b17590ac-bb78-4798-b20d-40942eeb2176))
  )

  (symbol (lib_id "power:+5V") (at 57.15 52.07 0) (unit 1)
    (in_bom yes) (on_board yes)
    (uuid 199533ba-9d8d-4136-84fb-9b759bceac1a)
    (property "Reference" "#PWR02" (id 0) (at 57.15 55.88 0)
      (effects (font (size 1.27 1.27)) hide)
    )
    (property "Value" "+5V" (id 1) (at 57.15 46.99 0))
    (property "Footprint" "" (id 2) (at 57.15 52.07 0)
      (effects (font (size 1.27 1.27)) hide)
    )
    (property "Datasheet" "" (id 3) (at 57.15 52.07 0)
      (effects (font (size 1.27 1.27)) hide)
    )
    (pin "1" (uuid 5852443c-d6b1-414f-a479-20b446edd309))
  )

  (symbol (lib_id "power:+3V3") (at 201.93 78.74 0) (unit 1)
    (in_bom yes) (on_board yes)
    (uuid 1ba21262-af1a-4bc6-90bc-074c8e5b32d6)
    (property "Reference" "#PWR019" (id 0) (at 201.93 82.55 0)
      (effects (font (size 1.27 1.27)) hide)
    )
    (property "Value" "+3V3" (id 1) (at 201.93 73.66 0))
    (property "Footprint" "" (id 2) (at 201.93 78.74 0)
      (effects (font (size 1.27 1.27)) hide)
    )
    (property "Datasheet" "" (id 3) (at 201.93 78.74 0)
      (effects (font (size 1.27 1.27)) hide)
    )
    (pin "1" (uuid b48412cc-9b6d-4346-9a3e-8e7128531f21))
  )

  (symbol (lib_id "power:GND") (at 125.73 119.38 0) (unit 1)
    (in_bom yes) (on_board yes) (fields_autoplaced)
    (uuid 25e12d02-d3ca-4711-9249-49ef65cf7ca9)
    (property "Reference" "#PWR011" (id 0) (at 125.73 125.73 0)
      (effects (font (size 1.27 1.27)) hide)
    )
    (property "Value" "GND" (id 1) (at 125.73 124.46 0))
    (property "Footprint" "" (id 2) (at 125.73 119.38 0)
      (effects (font (size 1.27 1.27)) hide)
    )
    (property "Datasheet" "" (id 3) (at 125.73 119.38 0)
      (effects (font (size 1.27 1.27)) hide)
    )
    (pin "1" (uuid 4e26811d-f9f7-4f0e-b67c-2741655df306))
  )

  (symbol (lib_id "Device:R") (at 31.75 90.17 180) (unit 1)
    (in_bom yes) (on_board yes)
    (uuid 32f821b7-4ad0-4a30-b472-4c52acc2096f)
    (property "Reference" "R1" (id 0) (at 31.75 90.17 90))
    (property "Value" "1M" (id 1) (at 29.21 92.71 0))
    (property "Footprint" "Resistor_SMD:R_0603_1608Metric" (id 2) (at 33.528 90.17 90)
      (effects (font (size 1.27 1.27)) hide)
    )
    (property "Datasheet" "~" (id 3) (at 31.75 90.17 0)
      (effects (font (size 1.27 1.27)) hide)
    )
    (pin "1" (uuid 4647ca58-a704-4446-b335-19f7648e5596))
    (pin "2" (uuid 9ae2f3b5-aacc-455b-a972-441025bd180c))
  )

  (symbol (lib_id "Device:R") (at 120.65 76.2 90) (unit 1)
    (in_bom yes) (on_board yes)
    (uuid 34e008d1-7b98-454a-b3ee-4eff93817477)
    (property "Reference" "R3" (id 0) (at 120.65 76.2 90))
    (property "Value" "27R" (id 1) (at 115.57 74.93 90))
    (property "Footprint" "Resistor_SMD:R_0603_1608Metric" (id 2) (at 120.65 77.978 90)
      (effects (font (size 1.27 1.27)) hide)
    )
    (property "Datasheet" "~" (id 3) (at 120.65 76.2 0)
      (effects (font (size 1.27 1.27)) hide)
    )
    (pin "1" (uuid 4b4196d9-8651-4962-9021-fcaea67da3fb))
    (pin "2" (uuid d2042401-c61c-4dcb-90c8-6cebbad84316))
  )

  (symbol (lib_id "Device:LED") (at 193.04 49.53 90) (unit 1)
    (in_bom yes) (on_board yes) (fields_autoplaced)
    (uuid 34f77730-d1f7-416c-b978-0833b209ed5e)
    (property "Reference" "D1" (id 0) (at 196.85 49.8474 90)
      (effects (font (size 1.27 1.27)) (justify right))
    )
    (property "Value" "" (id 1) (at 196.85 52.3874 90)
      (effects (font (size 1.27 1.27)) (justify right))
    )
    (property "Footprint" "LED_SMD:LED_0805_2012Metric" (id 2) (at 193.04 49.53 0)
      (effects (font (size 1.27 1.27)) hide)
    )
    (property "Datasheet" "~" (id 3) (at 193.04 49.53 0)
      (effects (font (size 1.27 1.27)) hide)
    )
    (pin "1" (uuid b1cf0d02-f439-4013-a2ba-70d2c042429c))
    (pin "2" (uuid 3b328700-d15a-46d6-8837-5d910db74aef))
  )

  (symbol (lib_id "Device:C") (at 73.66 110.49 0) (unit 1)
    (in_bom yes) (on_board yes)
    (uuid 3e0d93b8-13c7-4514-888f-265bd5a10cb0)
    (property "Reference" "C3" (id 0) (at 71.12 107.95 0)
      (effects (font (size 1.27 1.27)) (justify left))
    )
    (property "Value" "100n" (id 1) (at 68.58 113.03 0)
      (effects (font (size 1.27 1.27)) (justify left))
    )
    (property "Footprint" "Capacitor_SMD:C_0603_1608Metric" (id 2) (at 74.6252 114.3 0)
      (effects (font (size 1.27 1.27)) hide)
    )
    (property "Datasheet" "~" (id 3) (at 73.66 110.49 0)
      (effects (font (size 1.27 1.27)) hide)
    )
    (pin "1" (uuid 5f7ef96b-c911-4558-8877-98384e06af8f))
    (pin "2" (uuid 28eb196c-bac9-4b0f-ad9f-1330c6f95cf7))
  )

  (symbol (lib_id "power:GND") (at 101.6 119.38 0) (unit 1)
    (in_bom yes) (on_board yes) (fields_autoplaced)
    (uuid 491b5bf0-4333-4edb-8b22-bc6c40333009)
    (property "Reference" "#PWR021" (id 0) (at 101.6 125.73 0)
      (effects (font (size 1.27 1.27)) hide)
    )
    (property "Value" "GND" (id 1) (at 101.6 124.46 0))
    (property "Footprint" "" (id 2) (at 101.6 119.38 0)
      (effects (font (size 1.27 1.27)) hide)
    )
    (property "Datasheet" "" (id 3) (at 101.6 119.38 0)
      (effects (font (size 1.27 1.27)) hide)
    )
    (pin "1" (uuid 08770a83-366f-4df8-b16d-65e7c199718b))
  )

  (symbol (lib_id "power:+5V") (at 147.32 52.07 0) (unit 1)
    (in_bom yes) (on_board yes)
    (uuid 5292e2f9-c08e-4967-a4a3-85c4b182a139)
    (property "Reference" "#PWR012" (id 0) (at 147.32 55.88 0)
      (effects (font (size 1.27 1.27)) hide)
    )
    (property "Value" "+5V" (id 1) (at 147.32 46.99 0))
    (property "Footprint" "" (id 2) (at 147.32 52.07 0)
      (effects (font (size 1.27 1.27)) hide)
    )
    (property "Datasheet" "" (id 3) (at 147.32 52.07 0)
      (effects (font (size 1.27 1.27)) hide)
    )
    (pin "1" (uuid 644bbba9-029f-4af6-a25e-e63924e87d14))
  )

  (symbol (lib_id "Device:R") (at 203.2 59.69 180) (unit 1)
    (in_bom yes) (on_board yes)
    (uuid 55eb4cb8-a902-42c7-b10c-4df5c2277237)
    (property "Reference" "R5" (id 0) (at 203.2 59.69 90))
    (property "Value" "100R" (id 1) (at 200.66 59.69 90))
    (property "Footprint" "Resistor_SMD:R_0603_1608Metric" (id 2) (at 204.978 59.69 90)
      (effects (font (size 1.27 1.27)) hide)
    )
    (property "Datasheet" "~" (id 3) (at 203.2 59.69 0)
      (effects (font (size 1.27 1.27)) hide)
    )
    (pin "1" (uuid 857f4c81-23a4-4522-ab92-477213c76b52))
    (pin "2" (uuid afcadbfe-72e3-49bd-b1ba-4c3df0bcfbc6))
  )

  (symbol (lib_id "power:+3V3") (at 82.55 100.33 0) (unit 1)
    (in_bom yes) (on_board yes)
    (uuid 575034f7-c51c-4924-8e66-7f66e75fed1c)
    (property "Reference" "#PWR06" (id 0) (at 82.55 104.14 0)
      (effects (font (size 1.27 1.27)) hide)
    )
    (property "Value" "+3V3" (id 1) (at 82.55 95.25 0))
    (property "Footprint" "" (id 2) (at 82.55 100.33 0)
      (effects (font (size 1.27 1.27)) hide)
    )
    (property "Datasheet" "" (id 3) (at 82.55 100.33 0)
      (effects (font (size 1.27 1.27)) hide)
    )
    (pin "1" (uuid a6f6ac81-9f32-4dc8-8ab5-c9ca71e9f2f4))
  )

  (symbol (lib_id "Mechanical:MountingHole") (at 29.21 127 0) (unit 1)
    (in_bom yes) (on_board yes) (fields_autoplaced)
    (uuid 5a9cc8a7-c061-42f9-9de6-f71a0183a975)
    (property "Reference" "H1" (id 0) (at 31.75 125.7299 0)
      (effects (font (size 1.27 1.27)) (justify left))
    )
    (property "Value" "MountingHole" (id 1) (at 31.75 128.2699 0)
      (effects (font (size 1.27 1.27)) (justify left))
    )
    (property "Footprint" "MountingHole:MountingHole_2.2mm_M2" (id 2) (at 29.21 127 0)
      (effects (font (size 1.27 1.27)) hide)
    )
    (property "Datasheet" "~" (id 3) (at 29.21 127 0)
      (effects (font (size 1.27 1.27)) hide)
    )
  )

  (symbol (lib_id "Device:R") (at 191.77 91.44 90) (unit 1)
    (in_bom yes) (on_board yes)
    (uuid 5b5e864f-535d-4092-9991-cbdd55ede561)
    (property "Reference" "R7" (id 0) (at 191.77 91.44 90))
    (property "Value" "100R" (id 1) (at 191.77 88.9 90))
    (property "Footprint" "Resistor_SMD:R_0603_1608Metric" (id 2) (at 191.77 93.218 90)
      (effects (font (size 1.27 1.27)) hide)
    )
    (property "Datasheet" "~" (id 3) (at 191.77 91.44 0)
      (effects (font (size 1.27 1.27)) hide)
    )
    (pin "1" (uuid b5685397-9cbd-40a2-9bbe-8a8da9597141))
    (pin "2" (uuid 6cd5de5d-e2b4-42e9-b43a-b9f3925b063a))
  )

  (symbol (lib_id "Mechanical:MountingHole") (at 29.21 142.24 0) (unit 1)
    (in_bom yes) (on_board yes) (fields_autoplaced)
    (uuid 6406e711-4df6-48b2-96dd-3a38b30447b4)
    (property "Reference" "H4" (id 0) (at 31.75 140.9699 0)
      (effects (font (size 1.27 1.27)) (justify left))
    )
    (property "Value" "MountingHole" (id 1) (at 31.75 143.5099 0)
      (effects (font (size 1.27 1.27)) (justify left))
    )
    (property "Footprint" "MountingHole:MountingHole_2.2mm_M2" (id 2) (at 29.21 142.24 0)
      (effects (font (size 1.27 1.27)) hide)
    )
    (property "Datasheet" "~" (id 3) (at 29.21 142.24 0)
      (effects (font (size 1.27 1.27)) hide)
    )
  )

  (symbol (lib_id "PhysikIIIA:PL2303HXD") (at 149.86 83.82 0) (unit 1)
    (in_bom yes) (on_board yes)
    (uuid 66116376-6967-4178-9f23-a26cdeafc400)
    (property "Reference" "U1" (id 0) (at 133.35 60.96 0)
      (effects (font (size 1.27 1.27)) (justify left))
    )
    (property "Value" "PL2303HXD" (id 1) (at 156.21 62.23 0)
      (effects (font (size 1.27 1.27)) (justify left))
    )
    (property "Footprint" "Package_SO:SSOP-28_5.3x10.2mm_P0.65mm" (id 2) (at 177.8 106.68 0)
      (effects (font (size 1.27 1.27)) hide)
    )
    (property "Datasheet" "https://cdn-shop.adafruit.com/datasheets/PL2303HX.pdf" (id 3) (at 149.86 43.18 0)
      (effects (font (size 1.27 1.27)) hide)
    )
    (pin "1" (uuid 5038e144-5119-49db-b6cf-f7c345f1cf03))
    (pin "10" (uuid ac264c30-3e9a-4be2-b97a-9949b68bd497))
    (pin "11" (uuid 54365317-1355-4216-bb75-829375abc4ec))
    (pin "12" (uuid a3e4f0ae-9f86-49e9-b386-ed8b42e012fb))
    (pin "13" (uuid a690fc6c-55d9-47e6-b533-faa4b67e20f3))
    (pin "14" (uuid c144caa5-b0d4-4cef-840a-d4ad178a2102))
    (pin "15" (uuid efeac2a2-7682-4dc7-83ee-f6f1b23da506))
    (pin "16" (uuid 5fc27c35-3e1c-4f96-817c-93b5570858a6))
    (pin "17" (uuid 6c9b793c-e74d-4754-a2c0-901e73b26f1c))
    (pin "18" (uuid 6a45789b-3855-401f-8139-3c734f7f52f9))
    (pin "19" (uuid b1086f75-01ba-4188-8d36-75a9e2828ca9))
    (pin "2" (uuid 716e31c5-485f-40b5-88e3-a75900da9811))
    (pin "20" (uuid 127679a9-3981-4934-815e-896a4e3ff56e))
    (pin "21" (uuid 48ab88d7-7084-4d02-b109-3ad55a30bb11))
    (pin "22" (uuid f71da641-16e6-4257-80c3-0b9d804fee4f))
    (pin "23" (uuid fd470e95-4861-44fe-b1e4-6d8a7c66e144))
    (pin "24" (uuid 8174b4de-74b1-48db-ab8e-c8432251095b))
    (pin "25" (uuid 704d6d51-bb34-4cbf-83d8-841e208048d8))
    (pin "26" (uuid 0eaa98f0-9565-4637-ace3-42a5231b07f7))
    (pin "27" (uuid 181abe7a-f941-42b6-bd46-aaa3131f90fb))
    (pin "28" (uuid ce83728b-bebd-48c2-8734-b6a50d837931))
    (pin "3" (uuid c41b3c8b-634e-435a-b582-96b83bbd4032))
    (pin "4" (uuid 9340c285-5767-42d5-8b6d-63fe2a40ddf3))
    (pin "5" (uuid 1831fb37-1c5d-42c4-b898-151be6fca9dc))
    (pin "6" (uuid 0f22151c-f260-4674-b486-4710a2c42a55))
    (pin "7" (uuid fe8d9267-7834-48d6-a191-c8724b2ee78d))
    (pin "8" (uuid 0b21a65d-d20b-411e-920a-75c343ac5136))
    (pin "9" (uuid 3cd1bda0-18db-417d-b581-a0c50623df68))
  )

  (symbol (lib_id "Mechanical:MountingHole") (at 29.21 137.16 0) (unit 1)
    (in_bom yes) (on_board yes) (fields_autoplaced)
    (uuid 695619b1-3954-4ac8-ac23-82c0de60331e)
    (property "Reference" "H3" (id 0) (at 31.75 135.8899 0)
      (effects (font (size 1.27 1.27)) (justify left))
    )
    (property "Value" "MountingHole" (id 1) (at 31.75 138.4299 0)
      (effects (font (size 1.27 1.27)) (justify left))
    )
    (property "Footprint" "MountingHole:MountingHole_2.2mm_M2" (id 2) (at 29.21 137.16 0)
      (effects (font (size 1.27 1.27)) hide)
    )
    (property "Datasheet" "~" (id 3) (at 29.21 137.16 0)
      (effects (font (size 1.27 1.27)) hide)
    )
  )

  (symbol (lib_id "power:GND") (at 45.72 102.87 0) (unit 1)
    (in_bom yes) (on_board yes) (fields_autoplaced)
    (uuid 6ae3ed4f-be3c-4047-bc34-ad3a7ecb5558)
    (property "Reference" "#PWR01" (id 0) (at 45.72 109.22 0)
      (effects (font (size 1.27 1.27)) hide)
    )
    (property "Value" "GND" (id 1) (at 45.72 107.95 0))
    (property "Footprint" "" (id 2) (at 45.72 102.87 0)
      (effects (font (size 1.27 1.27)) hide)
    )
    (property "Datasheet" "" (id 3) (at 45.72 102.87 0)
      (effects (font (size 1.27 1.27)) hide)
    )
    (pin "1" (uuid f281836f-7dd7-4ba0-95db-af72f15bc470))
  )

  (symbol (lib_id "power:GND") (at 82.55 119.38 0) (unit 1)
    (in_bom yes) (on_board yes) (fields_autoplaced)
    (uuid 708cb5ba-6dc9-44a6-8006-6aafe9a53276)
    (property "Reference" "#PWR07" (id 0) (at 82.55 125.73 0)
      (effects (font (size 1.27 1.27)) hide)
    )
    (property "Value" "GND" (id 1) (at 82.55 124.46 0))
    (property "Footprint" "" (id 2) (at 82.55 119.38 0)
      (effects (font (size 1.27 1.27)) hide)
    )
    (property "Datasheet" "" (id 3) (at 82.55 119.38 0)
      (effects (font (size 1.27 1.27)) hide)
    )
    (pin "1" (uuid d8b7c2d4-ed1a-4958-a4bf-bf9b907a7f59))
  )

  (symbol (lib_id "Device:LED") (at 101.6 114.3 90) (unit 1)
    (in_bom yes) (on_board yes)
    (uuid 743b0bda-1445-4e38-ba1e-32f75360043e)
    (property "Reference" "D5" (id 0) (at 102.87 111.76 0))
    (property "Value" "" (id 1) (at 100.33 118.11 0))
    (property "Footprint" "LED_SMD:LED_0805_2012Metric" (id 2) (at 101.6 114.3 0)
      (effects (font (size 1.27 1.27)) hide)
    )
    (property "Datasheet" "~" (id 3) (at 101.6 114.3 0)
      (effects (font (size 1.27 1.27)) hide)
    )
    (pin "1" (uuid 57bb81af-ed38-45db-894e-7a5c70cb7e14))
    (pin "2" (uuid 29128c7e-3bc1-4a59-a796-0b95667b4a4d))
  )

  (symbol (lib_id "power:+3V3") (at 101.6 100.33 0) (unit 1)
    (in_bom yes) (on_board yes)
    (uuid 746030fd-2469-4bfd-8c27-e4a7e4234b48)
    (property "Reference" "#PWR020" (id 0) (at 101.6 104.14 0)
      (effects (font (size 1.27 1.27)) hide)
    )
    (property "Value" "+3V3" (id 1) (at 101.6 95.25 0))
    (property "Footprint" "" (id 2) (at 101.6 100.33 0)
      (effects (font (size 1.27 1.27)) hide)
    )
    (property "Datasheet" "" (id 3) (at 101.6 100.33 0)
      (effects (font (size 1.27 1.27)) hide)
    )
    (pin "1" (uuid bfd5c9ee-2549-4340-8ea2-35d5e7114eb3))
  )

  (symbol (lib_id "Device:C") (at 82.55 110.49 0) (unit 1)
    (in_bom yes) (on_board yes)
    (uuid 76307542-80e7-4435-a26b-1d2f7f583c03)
    (property "Reference" "C4" (id 0) (at 80.01 107.95 0)
      (effects (font (size 1.27 1.27)) (justify left))
    )
    (property "Value" "100n" (id 1) (at 77.47 113.03 0)
      (effects (font (size 1.27 1.27)) (justify left))
    )
    (property "Footprint" "Capacitor_SMD:C_0603_1608Metric" (id 2) (at 83.5152 114.3 0)
      (effects (font (size 1.27 1.27)) hide)
    )
    (property "Datasheet" "~" (id 3) (at 82.55 110.49 0)
      (effects (font (size 1.27 1.27)) hide)
    )
    (pin "1" (uuid 9c39d8ff-8eb8-451a-8712-9bad0b1200d4))
    (pin "2" (uuid fa14d00d-e56f-44e3-aadf-bc8abdca4993))
  )

  (symbol (lib_id "power:+3V3") (at 224.79 52.07 0) (unit 1)
    (in_bom yes) (on_board yes)
    (uuid 77494cef-04bf-4cf7-b0ac-ba206b74e1e6)
    (property "Reference" "#PWR017" (id 0) (at 224.79 55.88 0)
      (effects (font (size 1.27 1.27)) hide)
    )
    (property "Value" "+3V3" (id 1) (at 224.79 46.99 0))
    (property "Footprint" "" (id 2) (at 224.79 52.07 0)
      (effects (font (size 1.27 1.27)) hide)
    )
    (property "Datasheet" "" (id 3) (at 224.79 52.07 0)
      (effects (font (size 1.27 1.27)) hide)
    )
    (pin "1" (uuid 4326e2ac-d204-46a3-a35e-16b90eb78eb3))
  )

  (symbol (lib_id "Device:FerriteBead_Small") (at 45.72 99.06 0) (unit 1)
    (in_bom yes) (on_board yes) (fields_autoplaced)
    (uuid 788418f6-1950-4a90-bfb3-3e0b5f5fb606)
    (property "Reference" "FB1" (id 0) (at 48.26 97.7518 0)
      (effects (font (size 1.27 1.27)) (justify left))
    )
    (property "Value" "BLM18" (id 1) (at 48.26 100.2918 0)
      (effects (font (size 1.27 1.27)) (justify left))
    )
    (property "Footprint" "Resistor_SMD:R_0805_2012Metric" (id 2) (at 43.942 99.06 90)
      (effects (font (size 1.27 1.27)) hide)
    )
    (property "Datasheet" "~" (id 3) (at 45.72 99.06 0)
      (effects (font (size 1.27 1.27)) hide)
    )
    (pin "1" (uuid d747a29b-82b4-453a-94f1-0307fd22eeb3))
    (pin "2" (uuid 896dc5f7-8047-46d8-9e8d-8b6705002971))
  )

  (symbol (lib_id "power:+3V3") (at 109.22 52.07 0) (unit 1)
    (in_bom yes) (on_board yes)
    (uuid 7ca7273b-db13-441c-8aa4-5d5d29a90e38)
    (property "Reference" "#PWR04" (id 0) (at 109.22 55.88 0)
      (effects (font (size 1.27 1.27)) hide)
    )
    (property "Value" "+3V3" (id 1) (at 109.22 46.99 0))
    (property "Footprint" "" (id 2) (at 109.22 52.07 0)
      (effects (font (size 1.27 1.27)) hide)
    )
    (property "Datasheet" "" (id 3) (at 109.22 52.07 0)
      (effects (font (size 1.27 1.27)) hide)
    )
    (pin "1" (uuid 646b73b1-3088-453d-acb1-356783725c65))
  )

  (symbol (lib_id "power:GND") (at 224.79 73.66 0) (unit 1)
    (in_bom yes) (on_board yes) (fields_autoplaced)
    (uuid 7d03ea26-6f23-4ed3-a5a9-ba2f3a949f9a)
    (property "Reference" "#PWR018" (id 0) (at 224.79 80.01 0)
      (effects (font (size 1.27 1.27)) hide)
    )
    (property "Value" "GND" (id 1) (at 224.79 78.74 0))
    (property "Footprint" "" (id 2) (at 224.79 73.66 0)
      (effects (font (size 1.27 1.27)) hide)
    )
    (property "Datasheet" "" (id 3) (at 224.79 73.66 0)
      (effects (font (size 1.27 1.27)) hide)
    )
    (pin "1" (uuid 3f5e1247-9c04-4b18-a898-1252f8b40b76))
  )

  (symbol (lib_id "Connector:USB_B_Micro") (at 45.72 73.66 0) (unit 1)
    (in_bom yes) (on_board yes) (fields_autoplaced)
    (uuid 8c27bc07-8a45-4f07-98c1-9a1c238c5ffb)
    (property "Reference" "J1" (id 0) (at 45.72 60.96 0))
    (property "Value" "USB_B_Micro" (id 1) (at 45.72 63.5 0))
    (property "Footprint" "Connector_USB:USB_Micro-B_Wuerth_629105150521_CircularHoles" (id 2) (at 49.53 74.93 0)
      (effects (font (size 1.27 1.27)) hide)
    )
    (property "Datasheet" "~" (id 3) (at 49.53 74.93 0)
      (effects (font (size 1.27 1.27)) hide)
    )
    (pin "1" (uuid 48138612-8d4b-4fa4-99d1-6a1026a2169c))
    (pin "2" (uuid 057ca10b-9aec-4230-9783-541021e27ede))
    (pin "3" (uuid 490542d1-e7d1-49f4-84f3-6e4cdea5d676))
    (pin "4" (uuid a876fead-a810-4220-ba05-7ad6f88bb25c))
    (pin "5" (uuid 87e9d13e-cfa5-4632-8406-febc321dc4bd))
    (pin "6" (uuid 648f5838-b8f4-4b8e-b96f-1e6683c8f92f))
  )

  (symbol (lib_id "Device:LED") (at 203.2 49.53 90) (unit 1)
    (in_bom yes) (on_board yes) (fields_autoplaced)
    (uuid 95901878-f558-4bd5-9585-45c9a17647eb)
    (property "Reference" "D2" (id 0) (at 207.01 49.8474 90)
      (effects (font (size 1.27 1.27)) (justify right))
    )
    (property "Value" "" (id 1) (at 207.01 52.3874 90)
      (effects (font (size 1.27 1.27)) (justify right))
    )
    (property "Footprint" "LED_SMD:LED_0805_2012Metric" (id 2) (at 203.2 49.53 0)
      (effects (font (size 1.27 1.27)) hide)
    )
    (property "Datasheet" "~" (id 3) (at 203.2 49.53 0)
      (effects (font (size 1.27 1.27)) hide)
    )
    (pin "1" (uuid 476bef1d-4e7d-4740-80b7-68212b43029e))
    (pin "2" (uuid b5f7f711-aaaf-421a-a0df-a1ac1c0f2d15))
  )

  (symbol (lib_id "Connector:TestPoint_Alt") (at 184.15 101.6 270) (unit 1)
    (in_bom yes) (on_board yes)
    (uuid a1af4f17-55ae-4284-87ae-d04e8984f69b)
    (property "Reference" "TP7" (id 0) (at 189.23 101.6 90)
      (effects (font (size 1.27 1.27)) (justify left))
    )
    (property "Value" "." (id 1) (at 185.42 100.33 90)
      (effects (font (size 1.27 1.27)) (justify left))
    )
    (property "Footprint" "TestPoint:TestPoint_Pad_2.0x2.0mm" (id 2) (at 184.15 106.68 0)
      (effects (font (size 1.27 1.27)) hide)
    )
    (property "Datasheet" "~" (id 3) (at 184.15 106.68 0)
      (effects (font (size 1.27 1.27)) hide)
    )
    (pin "1" (uuid 839dbd04-fc7d-4ac9-b4f2-bfeb779bf774))
  )

  (symbol (lib_id "power:GND") (at 73.66 119.38 0) (unit 1)
    (in_bom yes) (on_board yes) (fields_autoplaced)
    (uuid a2ea1b72-1023-4efa-abd4-95b0373fca5a)
    (property "Reference" "#PWR05" (id 0) (at 73.66 125.73 0)
      (effects (font (size 1.27 1.27)) hide)
    )
    (property "Value" "GND" (id 1) (at 73.66 124.46 0))
    (property "Footprint" "" (id 2) (at 73.66 119.38 0)
      (effects (font (size 1.27 1.27)) hide)
    )
    (property "Datasheet" "" (id 3) (at 73.66 119.38 0)
      (effects (font (size 1.27 1.27)) hide)
    )
    (pin "1" (uuid 2858a740-30bd-4d85-a692-0793b4bed544))
  )

  (symbol (lib_id "power:+3V3") (at 125.73 52.07 0) (unit 1)
    (in_bom yes) (on_board yes)
    (uuid ab2d11b6-fb2a-4f46-ae3f-451fe5e806a1)
    (property "Reference" "#PWR010" (id 0) (at 125.73 55.88 0)
      (effects (font (size 1.27 1.27)) hide)
    )
    (property "Value" "+3V3" (id 1) (at 125.73 46.99 0))
    (property "Footprint" "" (id 2) (at 125.73 52.07 0)
      (effects (font (size 1.27 1.27)) hide)
    )
    (property "Datasheet" "" (id 3) (at 125.73 52.07 0)
      (effects (font (size 1.27 1.27)) hide)
    )
    (pin "1" (uuid 8d636e49-195d-4662-8b69-230d986a3b72))
  )

  (symbol (lib_id "Mechanical:MountingHole") (at 29.21 132.08 0) (unit 1)
    (in_bom yes) (on_board yes) (fields_autoplaced)
    (uuid b46f476b-14fa-4430-b782-f087b8f0f6a6)
    (property "Reference" "H2" (id 0) (at 31.75 130.8099 0)
      (effects (font (size 1.27 1.27)) (justify left))
    )
    (property "Value" "MountingHole" (id 1) (at 31.75 133.3499 0)
      (effects (font (size 1.27 1.27)) (justify left))
    )
    (property "Footprint" "MountingHole:MountingHole_2.2mm_M2" (id 2) (at 29.21 132.08 0)
      (effects (font (size 1.27 1.27)) hide)
    )
    (property "Datasheet" "~" (id 3) (at 29.21 132.08 0)
      (effects (font (size 1.27 1.27)) hide)
    )
  )

  (symbol (lib_id "power:GND") (at 91.44 119.38 0) (unit 1)
    (in_bom yes) (on_board yes) (fields_autoplaced)
    (uuid baad08c7-56ab-439d-833c-77eaa9b26615)
    (property "Reference" "#PWR09" (id 0) (at 91.44 125.73 0)
      (effects (font (size 1.27 1.27)) hide)
    )
    (property "Value" "GND" (id 1) (at 91.44 124.46 0))
    (property "Footprint" "" (id 2) (at 91.44 119.38 0)
      (effects (font (size 1.27 1.27)) hide)
    )
    (property "Datasheet" "" (id 3) (at 91.44 119.38 0)
      (effects (font (size 1.27 1.27)) hide)
    )
    (pin "1" (uuid b84ffd7e-97cb-4e5b-9370-a4e1fbf35adf))
  )

  (symbol (lib_id "Device:LED") (at 181.61 96.52 0) (unit 1)
    (in_bom yes) (on_board yes)
    (uuid d1d47d0e-2c95-4633-b3b1-865faf8c44d5)
    (property "Reference" "D4" (id 0) (at 184.15 97.79 0))
    (property "Value" "" (id 1) (at 176.53 95.25 0))
    (property "Footprint" "LED_SMD:LED_0805_2012Metric" (id 2) (at 181.61 96.52 0)
      (effects (font (size 1.27 1.27)) hide)
    )
    (property "Datasheet" "~" (id 3) (at 181.61 96.52 0)
      (effects (font (size 1.27 1.27)) hide)
    )
    (pin "1" (uuid 618134bf-34bc-4ce3-be0e-0a91e0976a55))
    (pin "2" (uuid 71e53da4-a57a-4ff2-9357-cd7906586970))
  )

  (symbol (lib_id "Device:R") (at 191.77 81.28 90) (unit 1)
    (in_bom yes) (on_board yes)
    (uuid d35c9297-bae3-4f0f-a2f2-16fb8e127afc)
    (property "Reference" "R9" (id 0) (at 191.77 81.28 90))
    (property "Value" "4k7" (id 1) (at 191.77 78.74 90))
    (property "Footprint" "Resistor_SMD:R_0603_1608Metric" (id 2) (at 191.77 83.058 90)
      (effects (font (size 1.27 1.27)) hide)
    )
    (property "Datasheet" "~" (id 3) (at 191.77 81.28 0)
      (effects (font (size 1.27 1.27)) hide)
    )
    (pin "1" (uuid 3e92a9cf-0f6b-492c-b39e-5d6edd9cc8ec))
    (pin "2" (uuid 01928336-a542-4e3a-b956-f293de4465cd))
  )

  (symbol (lib_id "Device:C") (at 91.44 110.49 0) (unit 1)
    (in_bom yes) (on_board yes)
    (uuid d5955590-dc3c-4885-9085-04a0979df419)
    (property "Reference" "C5" (id 0) (at 88.9 107.95 0)
      (effects (font (size 1.27 1.27)) (justify left))
    )
    (property "Value" "100n" (id 1) (at 86.36 113.03 0)
      (effects (font (size 1.27 1.27)) (justify left))
    )
    (property "Footprint" "Capacitor_SMD:C_0603_1608Metric" (id 2) (at 92.4052 114.3 0)
      (effects (font (size 1.27 1.27)) hide)
    )
    (property "Datasheet" "~" (id 3) (at 91.44 110.49 0)
      (effects (font (size 1.27 1.27)) hide)
    )
    (pin "1" (uuid 1bef5b1c-5aba-4e23-8748-ea44cb5e23bb))
    (pin "2" (uuid 387a8664-4730-4888-a058-f69d90493bd6))
  )

  (symbol (lib_id "Device:LED") (at 181.61 91.44 0) (unit 1)
    (in_bom yes) (on_board yes)
    (uuid d6426d2f-b828-4898-a895-f481b1f67b61)
    (property "Reference" "D3" (id 0) (at 184.15 92.71 0))
    (property "Value" "" (id 1) (at 176.53 90.17 0))
    (property "Footprint" "LED_SMD:LED_0805_2012Metric" (id 2) (at 181.61 91.44 0)
      (effects (font (size 1.27 1.27)) hide)
    )
    (property "Datasheet" "~" (id 3) (at 181.61 91.44 0)
      (effects (font (size 1.27 1.27)) hide)
    )
    (pin "1" (uuid 407d4c05-31da-472a-82ec-bfd9872be4ee))
    (pin "2" (uuid bf35b313-55f6-47eb-968a-822fd951e460))
  )

  (symbol (lib_id "Device:R") (at 109.22 66.04 180) (unit 1)
    (in_bom yes) (on_board yes)
    (uuid dc9a9953-e4b5-48d4-ba97-15cfac430f26)
    (property "Reference" "R6" (id 0) (at 109.22 66.04 90))
    (property "Value" "1k5" (id 1) (at 106.68 66.04 90))
    (property "Footprint" "Resistor_SMD:R_0603_1608Metric" (id 2) (at 110.998 66.04 90)
      (effects (font (size 1.27 1.27)) hide)
    )
    (property "Datasheet" "~" (id 3) (at 109.22 66.04 0)
      (effects (font (size 1.27 1.27)) hide)
    )
    (pin "1" (uuid ceec1260-3c70-4904-87cb-53761838393e))
    (pin "2" (uuid 600f26ce-cfd2-4789-aa18-c7e5b32b7df5))
  )

  (symbol (lib_id "power:+3V3") (at 154.94 52.07 0) (unit 1)
    (in_bom yes) (on_board yes)
    (uuid e3097b36-c90e-4749-b994-b18ef735ea26)
    (property "Reference" "#PWR014" (id 0) (at 154.94 55.88 0)
      (effects (font (size 1.27 1.27)) hide)
    )
    (property "Value" "+3V3" (id 1) (at 154.94 46.99 0))
    (property "Footprint" "" (id 2) (at 154.94 52.07 0)
      (effects (font (size 1.27 1.27)) hide)
    )
    (property "Datasheet" "" (id 3) (at 154.94 52.07 0)
      (effects (font (size 1.27 1.27)) hide)
    )
    (pin "1" (uuid cc2c69c0-9f17-4276-8146-58b6c95e3b1e))
  )

  (symbol (lib_id "power:+3V3") (at 203.2 43.18 0) (unit 1)
    (in_bom yes) (on_board yes)
    (uuid e6360f8a-6554-4797-86d2-4f541ec0b8c3)
    (property "Reference" "#PWR016" (id 0) (at 203.2 46.99 0)
      (effects (font (size 1.27 1.27)) hide)
    )
    (property "Value" "+3V3" (id 1) (at 203.2 38.1 0))
    (property "Footprint" "" (id 2) (at 203.2 43.18 0)
      (effects (font (size 1.27 1.27)) hide)
    )
    (property "Datasheet" "" (id 3) (at 203.2 43.18 0)
      (effects (font (size 1.27 1.27)) hide)
    )
    (pin "1" (uuid fb30918c-f74e-430c-bd6f-d739fbec9843))
  )

  (symbol (lib_id "Device:R") (at 193.04 59.69 180) (unit 1)
    (in_bom yes) (on_board yes)
    (uuid e974ad59-ec85-4353-972a-3cf56eda19a1)
    (property "Reference" "R4" (id 0) (at 193.04 59.69 90))
    (property "Value" "100R" (id 1) (at 190.5 59.69 90))
    (property "Footprint" "Resistor_SMD:R_0603_1608Metric" (id 2) (at 194.818 59.69 90)
      (effects (font (size 1.27 1.27)) hide)
    )
    (property "Datasheet" "~" (id 3) (at 193.04 59.69 0)
      (effects (font (size 1.27 1.27)) hide)
    )
    (pin "1" (uuid 626c838d-d1a3-45e4-9b84-003a4894f693))
    (pin "2" (uuid e8a8c03e-daed-4af5-bff2-497a701168e5))
  )

  (symbol (lib_id "Device:C_Polarized") (at 71.12 59.69 0) (unit 1)
    (in_bom yes) (on_board yes) (fields_autoplaced)
    (uuid ee0ae35f-5dae-4d9d-8e5d-f5fba9ccfaee)
    (property "Reference" "C2" (id 0) (at 74.93 57.5309 0)
      (effects (font (size 1.27 1.27)) (justify left))
    )
    (property "Value" "10u" (id 1) (at 74.93 60.0709 0)
      (effects (font (size 1.27 1.27)) (justify left))
    )
    (property "Footprint" "Capacitor_Tantalum_SMD:CP_EIA-3216-18_Kemet-A" (id 2) (at 72.0852 63.5 0)
      (effects (font (size 1.27 1.27)) hide)
    )
    (property "Datasheet" "~" (id 3) (at 71.12 59.69 0)
      (effects (font (size 1.27 1.27)) hide)
    )
    (pin "1" (uuid df0e692a-a3e9-49b8-952e-049ef2825c87))
    (pin "2" (uuid de48ec6b-5649-4ab7-b424-4b2fb6a51393))
  )

  (symbol (lib_id "power:+3V3") (at 91.44 100.33 0) (unit 1)
    (in_bom yes) (on_board yes)
    (uuid f8ca2942-b792-4ed6-aae5-73bafe51203e)
    (property "Reference" "#PWR08" (id 0) (at 91.44 104.14 0)
      (effects (font (size 1.27 1.27)) hide)
    )
    (property "Value" "+3V3" (id 1) (at 91.44 95.25 0))
    (property "Footprint" "" (id 2) (at 91.44 100.33 0)
      (effects (font (size 1.27 1.27)) hide)
    )
    (property "Datasheet" "" (id 3) (at 91.44 100.33 0)
      (effects (font (size 1.27 1.27)) hide)
    )
    (pin "1" (uuid c2453f09-a781-4d35-9f08-8f95e59a7540))
  )

  (symbol (lib_id "Device:R") (at 191.77 96.52 90) (unit 1)
    (in_bom yes) (on_board yes)
    (uuid f91fb34d-c555-48d9-b922-94635b8fcc53)
    (property "Reference" "R8" (id 0) (at 191.77 96.52 90))
    (property "Value" "100R" (id 1) (at 191.77 93.98 90))
    (property "Footprint" "Resistor_SMD:R_0603_1608Metric" (id 2) (at 191.77 98.298 90)
      (effects (font (size 1.27 1.27)) hide)
    )
    (property "Datasheet" "~" (id 3) (at 191.77 96.52 0)
      (effects (font (size 1.27 1.27)) hide)
    )
    (pin "1" (uuid c50b99e8-4155-4f34-9a2c-50819bbd2d7a))
    (pin "2" (uuid c26c9dc6-580b-4115-86a0-a0c0335fd17a))
  )

  (symbol (lib_id "Device:C") (at 39.37 90.17 0) (unit 1)
    (in_bom yes) (on_board yes)
    (uuid f93f533e-f182-4338-87cc-928512200d32)
    (property "Reference" "C1" (id 0) (at 36.83 87.63 0)
      (effects (font (size 1.27 1.27)) (justify left))
    )
    (property "Value" "1n" (id 1) (at 35.56 92.71 0)
      (effects (font (size 1.27 1.27)) (justify left))
    )
    (property "Footprint" "Capacitor_SMD:C_0603_1608Metric" (id 2) (at 40.3352 93.98 0)
      (effects (font (size 1.27 1.27)) hide)
    )
    (property "Datasheet" "~" (id 3) (at 39.37 90.17 0)
      (effects (font (size 1.27 1.27)) hide)
    )
    (pin "1" (uuid d8757e15-e487-410a-88e6-e6e54ef02f34))
    (pin "2" (uuid edb391d0-b229-49fc-a122-b08af98447e0))
  )

  (sheet_instances
    (path "/" (page "1"))
  )

  (symbol_instances
    (path "/6ae3ed4f-be3c-4047-bc34-ad3a7ecb5558"
      (reference "#PWR01") (unit 1) (value "GND") (footprint "")
    )
    (path "/199533ba-9d8d-4136-84fb-9b759bceac1a"
      (reference "#PWR02") (unit 1) (value "+5V") (footprint "")
    )
    (path "/0d2b9f11-b4cf-4286-9181-53f51e45a154"
      (reference "#PWR03") (unit 1) (value "GND") (footprint "")
    )
    (path "/7ca7273b-db13-441c-8aa4-5d5d29a90e38"
      (reference "#PWR04") (unit 1) (value "+3V3") (footprint "")
    )
    (path "/a2ea1b72-1023-4efa-abd4-95b0373fca5a"
      (reference "#PWR05") (unit 1) (value "GND") (footprint "")
    )
    (path "/575034f7-c51c-4924-8e66-7f66e75fed1c"
      (reference "#PWR06") (unit 1) (value "+3V3") (footprint "")
    )
    (path "/708cb5ba-6dc9-44a6-8006-6aafe9a53276"
      (reference "#PWR07") (unit 1) (value "GND") (footprint "")
    )
    (path "/f8ca2942-b792-4ed6-aae5-73bafe51203e"
      (reference "#PWR08") (unit 1) (value "+3V3") (footprint "")
    )
    (path "/baad08c7-56ab-439d-833c-77eaa9b26615"
      (reference "#PWR09") (unit 1) (value "GND") (footprint "")
    )
    (path "/ab2d11b6-fb2a-4f46-ae3f-451fe5e806a1"
      (reference "#PWR010") (unit 1) (value "+3V3") (footprint "")
    )
    (path "/25e12d02-d3ca-4711-9249-49ef65cf7ca9"
      (reference "#PWR011") (unit 1) (value "GND") (footprint "")
    )
    (path "/5292e2f9-c08e-4967-a4a3-85c4b182a139"
      (reference "#PWR012") (unit 1) (value "+5V") (footprint "")
    )
    (path "/085c97ca-a4dd-402d-aba4-5347ce7caa82"
      (reference "#PWR013") (unit 1) (value "GND") (footprint "")
    )
    (path "/e3097b36-c90e-4749-b994-b18ef735ea26"
      (reference "#PWR014") (unit 1) (value "+3V3") (footprint "")
    )
    (path "/03652a83-ff6a-4f96-a455-7e891ea8d728"
      (reference "#PWR015") (unit 1) (value "+3V3") (footprint "")
    )
    (path "/e6360f8a-6554-4797-86d2-4f541ec0b8c3"
      (reference "#PWR016") (unit 1) (value "+3V3") (footprint "")
    )
    (path "/77494cef-04bf-4cf7-b0ac-ba206b74e1e6"
      (reference "#PWR017") (unit 1) (value "+3V3") (footprint "")
    )
    (path "/7d03ea26-6f23-4ed3-a5a9-ba2f3a949f9a"
      (reference "#PWR018") (unit 1) (value "GND") (footprint "")
    )
    (path "/1ba21262-af1a-4bc6-90bc-074c8e5b32d6"
      (reference "#PWR019") (unit 1) (value "+3V3") (footprint "")
    )
    (path "/746030fd-2469-4bfd-8c27-e4a7e4234b48"
      (reference "#PWR020") (unit 1) (value "+3V3") (footprint "")
    )
    (path "/491b5bf0-4333-4edb-8b22-bc6c40333009"
      (reference "#PWR021") (unit 1) (value "GND") (footprint "")
    )
    (path "/0df2085f-e96a-4f59-9c8d-5dc68f98eeec"
      (reference "#PWR0101") (unit 1) (value "+5V") (footprint "")
    )
    (path "/f93f533e-f182-4338-87cc-928512200d32"
      (reference "C1") (unit 1) (value "1n") (footprint "Capacitor_SMD:C_0603_1608Metric")
    )
    (path "/ee0ae35f-5dae-4d9d-8e5d-f5fba9ccfaee"
      (reference "C2") (unit 1) (value "10u") (footprint "Capacitor_Tantalum_SMD:CP_EIA-3216-18_Kemet-A")
    )
    (path "/3e0d93b8-13c7-4514-888f-265bd5a10cb0"
      (reference "C3") (unit 1) (value "100n") (footprint "Capacitor_SMD:C_0603_1608Metric")
    )
    (path "/76307542-80e7-4435-a26b-1d2f7f583c03"
      (reference "C4") (unit 1) (value "100n") (footprint "Capacitor_SMD:C_0603_1608Metric")
    )
    (path "/d5955590-dc3c-4885-9085-04a0979df419"
      (reference "C5") (unit 1) (value "100n") (footprint "Capacitor_SMD:C_0603_1608Metric")
    )
    (path "/34f77730-d1f7-416c-b978-0833b209ed5e"
      (reference "D1") (unit 1) (value "Red") (footprint "LED_SMD:LED_0805_2012Metric")
    )
    (path "/95901878-f558-4bd5-9585-45c9a17647eb"
      (reference "D2") (unit 1) (value "Green") (footprint "LED_SMD:LED_0805_2012Metric")
    )
    (path "/d6426d2f-b828-4898-a895-f481b1f67b61"
      (reference "D3") (unit 1) (value "Orange") (footprint "LED_SMD:LED_0805_2012Metric")
    )
    (path "/d1d47d0e-2c95-4633-b3b1-865faf8c44d5"
      (reference "D4") (unit 1) (value "Orange") (footprint "LED_SMD:LED_0805_2012Metric")
    )
    (path "/743b0bda-1445-4e38-ba1e-32f75360043e"
      (reference "D5") (unit 1) (value "Blue") (footprint "LED_SMD:LED_0805_2012Metric")
    )
    (path "/788418f6-1950-4a90-bfb3-3e0b5f5fb606"
      (reference "FB1") (unit 1) (value "BLM18") (footprint "Resistor_SMD:R_0805_2012Metric")
    )
    (path "/04e168b3-d155-496f-a77d-57b133a55d20"
      (reference "FB2") (unit 1) (value "BLM18") (footprint "Resistor_SMD:R_0805_2012Metric")
    )
    (path "/5a9cc8a7-c061-42f9-9de6-f71a0183a975"
      (reference "H1") (unit 1) (value "MountingHole") (footprint "MountingHole:MountingHole_2.2mm_M2")
    )
    (path "/b46f476b-14fa-4430-b782-f087b8f0f6a6"
      (reference "H2") (unit 1) (value "MountingHole") (footprint "MountingHole:MountingHole_2.2mm_M2")
    )
    (path "/695619b1-3954-4ac8-ac23-82c0de60331e"
      (reference "H3") (unit 1) (value "MountingHole") (footprint "MountingHole:MountingHole_2.2mm_M2")
    )
    (path "/6406e711-4df6-48b2-96dd-3a38b30447b4"
      (reference "H4") (unit 1) (value "MountingHole") (footprint "MountingHole:MountingHole_2.2mm_M2")
    )
    (path "/8c27bc07-8a45-4f07-98c1-9a1c238c5ffb"
      (reference "J1") (unit 1) (value "USB_B_Micro") (footprint "Connector_USB:USB_Micro-B_Wuerth_629105150521_CircularHoles")
    )
    (path "/0b5d9c8f-42e0-48a5-9f77-b8b43630972b"
      (reference "J2") (unit 1) (value "Pinheader 01x04") (footprint "Connector_PinHeader_2.54mm:PinHeader_1x04_P2.54mm_Vertical")
    )
    (path "/32f821b7-4ad0-4a30-b472-4c52acc2096f"
      (reference "R1") (unit 1) (value "1M") (footprint "Resistor_SMD:R_0603_1608Metric")
    )
    (path "/186841d7-fae1-4680-8006-7c14f06d9909"
      (reference "R2") (unit 1) (value "27R") (footprint "Resistor_SMD:R_0603_1608Metric")
    )
    (path "/34e008d1-7b98-454a-b3ee-4eff93817477"
      (reference "R3") (unit 1) (value "27R") (footprint "Resistor_SMD:R_0603_1608Metric")
    )
    (path "/e974ad59-ec85-4353-972a-3cf56eda19a1"
      (reference "R4") (unit 1) (value "100R") (footprint "Resistor_SMD:R_0603_1608Metric")
    )
    (path "/55eb4cb8-a902-42c7-b10c-4df5c2277237"
      (reference "R5") (unit 1) (value "100R") (footprint "Resistor_SMD:R_0603_1608Metric")
    )
    (path "/dc9a9953-e4b5-48d4-ba97-15cfac430f26"
      (reference "R6") (unit 1) (value "1k5") (footprint "Resistor_SMD:R_0603_1608Metric")
    )
    (path "/5b5e864f-535d-4092-9991-cbdd55ede561"
      (reference "R7") (unit 1) (value "100R") (footprint "Resistor_SMD:R_0603_1608Metric")
    )
    (path "/f91fb34d-c555-48d9-b922-94635b8fcc53"
      (reference "R8") (unit 1) (value "100R") (footprint "Resistor_SMD:R_0603_1608Metric")
    )
    (path "/d35c9297-bae3-4f0f-a2f2-16fb8e127afc"
      (reference "R9") (unit 1) (value "4k7") (footprint "Resistor_SMD:R_0603_1608Metric")
    )
    (path "/09977476-c901-479d-85f4-0bf88d579a9a"
      (reference "R10") (unit 1) (value "100R") (footprint "Resistor_SMD:R_0603_1608Metric")
    )
    (path "/a1af4f17-55ae-4284-87ae-d04e8984f69b"
      (reference "TP7") (unit 1) (value ".") (footprint "TestPoint:TestPoint_Pad_2.0x2.0mm")
    )
    (path "/66116376-6967-4178-9f23-a26cdeafc400"
      (reference "U1") (unit 1) (value "PL2303HXD") (footprint "Package_SO:SSOP-28_5.3x10.2mm_P0.65mm")
    )
  )
)
